run, type, S, W, T, N, baseline, t, i, bit flipped, num errors, threshold, time, overhead (%)
0,abft.inject,4,800,10000,100000,0.916595,9498,17417,16,0,0.0001000000,1.199408,30.85
1,abft.inject,4,800,10000,100000,0.886059,1200,10323,16,0,0.0001000000,1.196156,35.00
2,abft.inject,4,800,10000,100000,0.899037,4689,17055,16,0,0.0001000000,1.236828,37.57
3,abft.inject,4,800,10000,100000,0.898781,7066,9371,16,0,0.0001000000,1.209873,34.61
4,abft.inject,4,800,10000,100000,0.883844,3839,14890,16,0,0.0001000000,1.197780,35.52
5,abft.inject,4,800,10000,100000,0.889016,1819,9739,16,0,0.0001000000,1.196621,34.60
6,abft.inject,4,800,10000,100000,0.882557,9982,76513,16,0,0.0001000000,1.196039,35.52
7,abft.inject,4,800,10000,100000,0.883755,3266,84043,16,0,0.0001000000,1.196131,35.35
8,abft.inject,4,800,10000,100000,0.879472,5449,51483,16,0,0.0001000000,1.198477,36.27
9,abft.inject,4,800,10000,100000,0.883605,3834,8831,16,0,0.0001000000,1.196386,35.40
10,abft.inject,4,800,10000,100000,0.889861,9701,97719,16,0,0.0001000000,1.195716,34.37
11,abft.inject,4,800,10000,100000,0.898875,1852,27332,16,0,0.0001000000,1.234670,37.36
12,abft.inject,4,800,10000,100000,0.887428,1495,98167,16,0,0.0001000000,1.196797,34.86
13,abft.inject,4,800,10000,100000,0.889520,3181,89995,16,0,0.0001000000,1.198311,34.71
14,abft.inject,4,800,10000,100000,0.901163,9469,60945,16,0,0.0001000000,1.198345,32.98
15,abft.inject,4,800,10000,100000,0.900399,6202,890,16,0,0.0001000000,1.233739,37.02
16,abft.inject,4,800,10000,100000,0.890159,3808,31437,16,0,0.0001000000,1.196023,34.36
17,abft.inject,4,800,10000,100000,0.894900,3032,54655,16,0,0.0001000000,1.198233,33.90
18,abft.inject,4,800,10000,100000,0.880637,1005,56734,16,0,0.0001000000,1.196373,35.85
19,abft.inject,4,800,10000,100000,0.888834,2024,88482,16,0,0.0001000000,1.195764,34.53
20,abft.inject,4,800,10000,100000,0.881168,9541,51882,16,0,0.0001000000,1.197391,35.89
21,abft.inject,4,800,10000,100000,0.880681,7957,9760,16,0,0.0001000000,1.197929,36.02
22,abft.inject,4,800,10000,100000,0.908136,8630,52816,16,0,0.0001000000,1.197206,31.83
23,abft.inject,4,800,10000,100000,0.879300,2276,47399,16,0,0.0001000000,1.196734,36.10
24,abft.inject,4,800,10000,100000,0.885320,7573,96077,16,0,0.0001000000,1.195743,35.06
25,abft.inject,4,800,10000,100000,0.881194,645,19554,16,0,0.0001000000,1.196098,35.74
26,abft.inject,4,800,10000,100000,0.898668,359,9195,16,0,0.0001000000,1.216588,35.38
27,abft.inject,4,800,10000,100000,0.881141,3701,23864,16,0,0.0001000000,1.200249,36.22
28,abft.inject,4,800,10000,100000,0.879275,739,48267,16,0,0.0001000000,1.196192,36.04
29,abft.inject,4,800,10000,100000,0.879301,7149,59166,16,0,0.0001000000,1.197062,36.14
30,abft.inject,4,800,10000,100000,0.898826,2093,48998,16,0,0.0001000000,1.213203,34.98
31,abft.inject,4,800,10000,100000,0.881964,1759,56133,16,0,0.0001000000,1.197594,35.79
32,abft.inject,4,800,10000,100000,0.898741,8097,98363,16,0,0.0001000000,1.199455,33.46
33,abft.inject,4,800,10000,100000,0.879270,4103,56553,16,0,0.0001000000,1.195894,36.01
34,abft.inject,4,800,10000,100000,0.886270,6316,88741,16,0,0.0001000000,1.196336,34.99
35,abft.inject,4,800,10000,100000,0.898562,8401,91409,16,0,0.0001000000,1.218634,35.62
36,abft.inject,4,800,10000,100000,0.879562,8950,98935,16,0,0.0001000000,1.197046,36.10
37,abft.inject,4,800,10000,100000,0.898924,7870,35008,16,0,0.0001000000,1.226507,36.44
38,abft.inject,4,800,10000,100000,0.898375,1081,28086,16,0,0.0001000000,1.225060,36.36
39,abft.inject,4,800,10000,100000,0.887592,9358,19706,16,0,0.0001000000,1.196345,34.79
40,abft.inject,4,800,10000,100000,0.889600,3980,46824,16,0,0.0001000000,1.198075,34.68
41,abft.inject,4,800,10000,100000,0.887337,6096,77502,16,0,0.0001000000,1.196618,34.85
42,abft.inject,4,800,10000,100000,0.879277,9393,60046,16,0,0.0001000000,1.195902,36.01
43,abft.inject,4,800,10000,100000,0.891776,5372,54491,16,0,0.0001000000,1.196191,34.14
44,abft.inject,4,800,10000,100000,0.879258,4795,43373,16,0,0.0001000000,1.198652,36.33
45,abft.inject,4,800,10000,100000,0.881693,6882,56974,16,0,0.0001000000,1.196751,35.73
46,abft.inject,4,800,10000,100000,0.890941,7737,13437,16,0,0.0001000000,1.195843,34.22
47,abft.inject,4,800,10000,100000,0.886669,8474,68695,16,0,0.0001000000,1.197862,35.10
48,abft.inject,4,800,10000,100000,0.898572,4585,1065,16,0,0.0001000000,1.213357,35.03
49,abft.inject,4,800,10000,100000,0.881635,4027,10332,16,0,0.0001000000,1.197230,35.80
50,abft.inject,4,800,10000,100000,0.879429,3405,80671,16,0,0.0001000000,1.196243,36.02
0,abft.inject,6,800,10000,100000,0.889430,5722,85525,16,0,0.0001000000,1.099678,23.64
1,abft.inject,6,800,10000,100000,0.895197,8459,86211,16,0,0.0001000000,1.100119,22.89
2,abft.inject,6,800,10000,100000,0.898634,180,20890,16,0,0.0001000000,1.137082,26.53
3,abft.inject,6,800,10000,100000,0.879770,5475,33934,16,0,0.0001000000,1.104748,25.57
4,abft.inject,6,800,10000,100000,0.879341,1033,25161,16,0,0.0001000000,1.100201,25.12
5,abft.inject,6,800,10000,100000,0.883966,7782,85654,16,0,0.0001000000,1.102189,24.69
6,abft.inject,6,800,10000,100000,0.899354,8476,32734,16,0,0.0001000000,1.146097,27.44
7,abft.inject,6,800,10000,100000,0.879508,3602,27093,16,0,0.0001000000,1.103630,25.48
8,abft.inject,6,800,10000,100000,0.900076,6920,85705,16,0,0.0001000000,1.136710,26.29
9,abft.inject,6,800,10000,100000,0.879750,3587,16857,16,0,0.0001000000,1.100819,25.13
10,abft.inject,6,800,10000,100000,0.879505,3012,83561,16,0,0.0001000000,1.102168,25.32
11,abft.inject,6,800,10000,100000,0.879324,6940,68395,16,0,0.0001000000,1.100552,25.16
12,abft.inject,6,800,10000,100000,0.892657,3404,42058,16,0,0.0001000000,1.100715,23.31
13,abft.inject,6,800,10000,100000,0.880530,9282,9411,16,0,0.0001000000,1.100975,25.04
14,abft.inject,6,800,10000,100000,0.893805,7907,22231,16,0,0.0001000000,1.101206,23.20
15,abft.inject,6,800,10000,100000,0.880226,1737,41082,16,0,0.0001000000,1.103499,25.37
16,abft.inject,6,800,10000,100000,0.897729,3215,45346,16,0,0.0001000000,1.101405,22.69
17,abft.inject,6,800,10000,100000,0.879351,4895,38832,16,0,0.0001000000,1.102459,25.37
18,abft.inject,6,800,10000,100000,0.893889,1371,44307,16,0,0.0001000000,1.101179,23.19
19,abft.inject,6,800,10000,100000,0.882060,3046,48369,16,0,0.0001000000,1.101006,24.82
20,abft.inject,6,800,10000,100000,0.888252,4230,62859,16,0,0.0001000000,1.100752,23.92
21,abft.inject,6,800,10000,100000,0.894578,8026,96993,16,0,0.0001000000,1.100506,23.02
22,abft.inject,6,800,10000,100000,0.881517,9599,36082,16,0,0.0001000000,1.101599,24.97
23,abft.inject,6,800,10000,100000,0.898590,7902,68990,16,0,0.0001000000,1.143511,27.26
24,abft.inject,6,800,10000,100000,0.886012,728,54669,16,0,0.0001000000,1.101248,24.29
25,abft.inject,6,800,10000,100000,0.879158,5175,43093,16,0,0.0001000000,1.100726,25.20
26,abft.inject,6,800,10000,100000,0.888116,9364,99118,16,0,0.0001000000,1.101233,24.00
27,abft.inject,6,800,10000,100000,0.880783,340,63249,16,0,0.0001000000,1.101922,25.11
28,abft.inject,6,800,10000,100000,0.880435,8924,26929,16,0,0.0001000000,1.099619,24.89
29,abft.inject,6,800,10000,100000,0.879995,2100,68904,16,0,0.0001000000,1.102330,25.27
30,abft.inject,6,800,10000,100000,0.879323,1731,99655,16,0,0.0001000000,1.099957,25.09
31,abft.inject,6,800,10000,100000,0.885993,5377,1608,16,0,0.0001000000,1.102959,24.49
32,abft.inject,6,800,10000,100000,0.881485,9270,96518,16,0,0.0001000000,1.099500,24.73
33,abft.inject,6,800,10000,100000,0.888639,4486,9875,16,0,0.0001000000,1.100639,23.86
34,abft.inject,6,800,10000,100000,0.880312,8606,39603,16,0,0.0001000000,1.100518,25.01
35,abft.inject,6,800,10000,100000,0.879428,4619,63297,16,0,0.0001000000,1.101999,25.31
36,abft.inject,6,800,10000,100000,0.882485,118,92885,16,0,0.0001000000,1.102615,24.94
37,abft.inject,6,800,10000,100000,0.879545,8642,39042,16,0,0.0001000000,1.101171,25.20
38,abft.inject,6,800,10000,100000,0.879137,5766,57180,16,0,0.0001000000,1.100359,25.16
39,abft.inject,6,800,10000,100000,0.879492,2575,1685,16,0,0.0001000000,1.100142,25.09
40,abft.inject,6,800,10000,100000,0.879040,6026,77297,16,0,0.0001000000,1.099417,25.07
41,abft.inject,6,800,10000,100000,0.881157,5490,61822,16,0,0.0001000000,1.099202,24.75
42,abft.inject,6,800,10000,100000,0.889518,318,35361,16,0,0.0001000000,1.099955,23.66
43,abft.inject,6,800,10000,100000,0.879409,6711,40452,16,0,0.0001000000,1.102276,25.34
44,abft.inject,6,800,10000,100000,0.885006,1832,82996,16,0,0.0001000000,1.101000,24.41
45,abft.inject,6,800,10000,100000,0.881302,2430,5886,16,0,0.0001000000,1.100824,24.91
46,abft.inject,6,800,10000,100000,0.883232,2524,29216,16,0,0.0001000000,1.100388,24.59
47,abft.inject,6,800,10000,100000,0.879414,2690,29059,16,0,0.0001000000,1.100549,25.15
48,abft.inject,6,800,10000,100000,0.879434,3570,66093,16,0,0.0001000000,1.101751,25.28
49,abft.inject,6,800,10000,100000,0.879161,1175,63705,16,0,0.0001000000,1.101173,25.25
50,abft.inject,6,800,10000,100000,0.881420,8179,90648,16,0,0.0001000000,1.100677,24.88
0,abft.inject,8,800,10000,100000,0.879194,5560,37579,16,0,0.0001000000,1.064116,21.03
1,abft.inject,8,800,10000,100000,0.879415,6080,61486,16,0,0.0001000000,1.064290,21.02
2,abft.inject,8,800,10000,100000,0.880306,1313,63368,16,0,0.0001000000,1.064224,20.89
3,abft.inject,8,800,10000,100000,0.879483,2907,75774,16,0,0.0001000000,1.065619,21.16
4,abft.inject,8,800,10000,100000,0.881537,3937,79652,16,0,0.0001000000,1.065653,20.89
5,abft.inject,8,800,10000,100000,0.882753,6535,50843,16,0,0.0001000000,1.064093,20.54
6,abft.inject,8,800,10000,100000,0.879348,7414,8763,16,0,0.0001000000,1.063912,20.99
7,abft.inject,8,800,10000,100000,0.880149,5344,77489,16,0,0.0001000000,1.064100,20.90
8,abft.inject,8,800,10000,100000,0.879239,5162,20934,16,0,0.0001000000,1.066065,21.25
9,abft.inject,8,800,10000,100000,0.879626,6240,63466,16,0,0.0001000000,1.068589,21.48
10,abft.inject,8,800,10000,100000,0.879840,6719,54300,16,0,0.0001000000,1.064073,20.94
11,abft.inject,8,800,10000,100000,0.879545,8519,16363,16,0,0.0001000000,1.065234,21.11
12,abft.inject,8,800,10000,100000,0.879240,2554,34534,16,0,0.0001000000,1.064157,21.03
13,abft.inject,8,800,10000,100000,0.879200,3591,23124,16,0,0.0001000000,1.066665,21.32
14,abft.inject,8,800,10000,100000,0.899921,9403,76119,16,0,0.0001000000,1.097123,21.91
15,abft.inject,8,800,10000,100000,0.879373,5741,57742,16,0,0.0001000000,1.064190,21.02
16,abft.inject,8,800,10000,100000,0.880656,2031,80344,16,0,0.0001000000,1.066230,21.07
17,abft.inject,8,800,10000,100000,0.883052,8388,73026,16,0,0.0001000000,1.064198,20.51
18,abft.inject,8,800,10000,100000,0.884011,9490,16461,16,0,0.0001000000,1.064527,20.42
19,abft.inject,8,800,10000,100000,0.881692,6377,52843,16,0,0.0001000000,1.064544,20.74
20,abft.inject,8,800,10000,100000,0.881398,9096,44269,16,0,0.0001000000,1.064478,20.77
21,abft.inject,8,800,10000,100000,0.879396,8789,938,16,0,0.0001000000,1.068529,21.51
22,abft.inject,8,800,10000,100000,0.882305,6641,48250,16,0,0.0001000000,1.067509,20.99
23,abft.inject,8,800,10000,100000,0.886198,1154,48653,16,0,0.0001000000,1.065544,20.24
24,abft.inject,8,800,10000,100000,0.890356,8095,53294,16,0,0.0001000000,1.064529,19.56
25,abft.inject,8,800,10000,100000,0.898540,8966,32524,16,0,0.0001000000,1.104691,22.94
26,abft.inject,8,800,10000,100000,0.896967,8025,65963,16,0,0.0001000000,1.064391,18.67
27,abft.inject,8,800,10000,100000,0.898962,8079,12873,16,0,0.0001000000,1.075849,19.68
28,abft.inject,8,800,10000,100000,0.879869,3341,22302,16,0,0.0001000000,1.065378,21.08
29,abft.inject,8,800,10000,100000,0.898236,3936,66803,16,0,0.0001000000,1.104904,23.01
30,abft.inject,8,800,10000,100000,0.887346,4504,21453,16,0,0.0001000000,1.063927,19.90
31,abft.inject,8,800,10000,100000,0.900184,2760,78925,16,0,0.0001000000,1.098743,22.06
32,abft.inject,8,800,10000,100000,0.879485,5290,76215,16,0,0.0001000000,1.066457,21.26
33,abft.inject,8,800,10000,100000,0.879286,3628,73567,16,0,0.0001000000,1.065061,21.13
34,abft.inject,8,800,10000,100000,0.879362,3755,71408,16,0,0.0001000000,1.064019,21.00
35,abft.inject,8,800,10000,100000,0.879425,9492,53988,16,0,0.0001000000,1.064580,21.05
36,abft.inject,8,800,10000,100000,0.882006,2950,6922,16,0,0.0001000000,1.063871,20.62
37,abft.inject,8,800,10000,100000,0.881248,8079,21091,16,0,0.0001000000,1.066916,21.07
38,abft.inject,8,800,10000,100000,0.880358,1599,23298,16,0,0.0001000000,1.068454,21.37
39,abft.inject,8,800,10000,100000,0.879139,3116,86360,16,0,0.0001000000,1.063929,21.02
40,abft.inject,8,800,10000,100000,0.879661,2622,20992,16,0,0.0001000000,1.065135,21.08
41,abft.inject,8,800,10000,100000,0.879163,2706,94610,16,0,0.0001000000,1.063834,21.01
42,abft.inject,8,800,10000,100000,0.881638,2608,95104,16,0,0.0001000000,1.063950,20.68
43,abft.inject,8,800,10000,100000,0.880412,4337,35765,16,0,0.0001000000,1.064535,20.91
44,abft.inject,8,800,10000,100000,0.879173,3234,85077,16,0,0.0001000000,1.063824,21.00
45,abft.inject,8,800,10000,100000,0.879446,4525,20544,16,0,0.0001000000,1.065241,21.13
46,abft.inject,8,800,10000,100000,0.879200,9041,97849,16,0,0.0001000000,1.063874,21.00
47,abft.inject,8,800,10000,100000,0.881555,787,89412,16,0,0.0001000000,1.065119,20.82
48,abft.inject,8,800,10000,100000,0.892500,281,27985,16,0,0.0001000000,1.064129,19.23
49,abft.inject,8,800,10000,100000,0.879074,7583,66527,16,0,0.0001000000,1.063911,21.03
50,abft.inject,8,800,10000,100000,0.880358,2736,89724,16,0,0.0001000000,1.064728,20.94
0,abft.inject,10,800,10000,100000,0.879626,6883,71015,16,0,0.0001000000,1.023835,16.39
1,abft.inject,10,800,10000,100000,0.879020,2283,62596,16,0,0.0001000000,1.026667,16.80
2,abft.inject,10,800,10000,100000,0.880823,9561,62808,16,0,0.0001000000,1.023381,16.18
3,abft.inject,10,800,10000,100000,0.879133,5901,65024,16,0,0.0001000000,1.023347,16.40
4,abft.inject,10,800,10000,100000,0.887038,5208,8712,16,0,0.0001000000,1.024860,15.54
5,abft.inject,10,800,10000,100000,0.879220,3218,13028,16,0,0.0001000000,1.024076,16.48
6,abft.inject,10,800,10000,100000,0.884496,2336,61138,16,0,0.0001000000,1.025187,15.91
7,abft.inject,10,800,10000,100000,0.879286,3881,73010,16,0,0.0001000000,1.023885,16.45
8,abft.inject,10,800,10000,100000,0.879398,4662,43272,16,0,0.0001000000,1.024083,16.45
9,abft.inject,10,800,10000,100000,0.879915,7522,23262,16,0,0.0001000000,1.023196,16.28
10,abft.inject,10,800,10000,100000,0.879253,397,55921,16,0,0.0001000000,1.025298,16.61
11,abft.inject,10,800,10000,100000,0.879274,7078,59271,16,0,0.0001000000,1.025291,16.61
12,abft.inject,10,800,10000,100000,0.880000,6901,58398,16,0,0.0001000000,1.023776,16.34
13,abft.inject,10,800,10000,100000,0.879286,1418,95465,16,0,0.0001000000,1.025702,16.65
14,abft.inject,10,800,10000,100000,0.880507,1411,70045,16,0,0.0001000000,1.023837,16.28
15,abft.inject,10,800,10000,100000,0.879135,5469,78517,16,0,0.0001000000,1.025777,16.68
16,abft.inject,10,800,10000,100000,0.879655,9259,39349,16,0,0.0001000000,1.026896,16.74
17,abft.inject,10,800,10000,100000,0.879799,5599,71665,16,0,0.0001000000,1.023418,16.32
18,abft.inject,10,800,10000,100000,0.879333,2598,99352,16,0,0.0001000000,1.023911,16.44
19,abft.inject,10,800,10000,100000,0.879544,9627,34148,16,0,0.0001000000,1.024837,16.52
20,abft.inject,10,800,10000,100000,0.881330,7676,13573,16,0,0.0001000000,1.024961,16.30
21,abft.inject,10,800,10000,100000,0.879948,8426,85793,16,0,0.0001000000,1.023783,16.35
22,abft.inject,10,800,10000,100000,0.880166,5742,11781,16,0,0.0001000000,1.023981,16.34
23,abft.inject,10,800,10000,100000,0.879388,1538,80296,16,0,0.0001000000,1.024218,16.47
24,abft.inject,10,800,10000,100000,0.879644,9355,36247,16,0,0.0001000000,1.024224,16.44
25,abft.inject,10,800,10000,100000,0.880578,1497,91050,16,0,0.0001000000,1.027744,16.71
26,abft.inject,10,800,10000,100000,0.880801,771,5371,16,0,0.0001000000,1.023489,16.20
27,abft.inject,10,800,10000,100000,0.879259,4607,30915,16,0,0.0001000000,1.025938,16.68
28,abft.inject,10,800,10000,100000,0.883076,6163,85839,16,0,0.0001000000,1.026820,16.28
29,abft.inject,10,800,10000,100000,0.879472,7735,82293,16,0,0.0001000000,1.023683,16.40
30,abft.inject,10,800,10000,100000,0.879283,1957,19337,16,0,0.0001000000,1.025366,16.61
31,abft.inject,10,800,10000,100000,0.880489,4442,99027,16,0,0.0001000000,1.027055,16.65
32,abft.inject,10,800,10000,100000,0.879269,1826,68073,16,0,0.0001000000,1.023091,16.36
33,abft.inject,10,800,10000,100000,0.883746,5250,30722,16,0,0.0001000000,1.025693,16.06
34,abft.inject,10,800,10000,100000,0.879433,5008,96366,16,0,0.0001000000,1.024484,16.49
35,abft.inject,10,800,10000,100000,0.881547,4845,64575,16,0,0.0001000000,1.023531,16.11
36,abft.inject,10,800,10000,100000,0.880407,5663,89110,16,0,0.0001000000,1.025377,16.47
37,abft.inject,10,800,10000,100000,0.879351,5543,83912,16,0,0.0001000000,1.024061,16.46
38,abft.inject,10,800,10000,100000,0.879382,7465,83182,16,0,0.0001000000,1.024244,16.47
39,abft.inject,10,800,10000,100000,0.879492,343,29952,16,0,0.0001000000,1.023858,16.41
40,abft.inject,10,800,10000,100000,0.884331,7763,85659,16,0,0.0001000000,1.023093,15.69
41,abft.inject,10,800,10000,100000,0.880271,201,93383,16,0,0.0001000000,1.024116,16.34
42,abft.inject,10,800,10000,100000,0.879347,5697,35279,16,0,0.0001000000,1.023357,16.38
43,abft.inject,10,800,10000,100000,0.879362,8725,75206,16,0,0.0001000000,1.023921,16.44
44,abft.inject,10,800,10000,100000,0.879781,5498,97484,16,0,0.0001000000,1.023830,16.37
45,abft.inject,10,800,10000,100000,0.882256,7706,65972,16,0,0.0001000000,1.024027,16.07
46,abft.inject,10,800,10000,100000,0.880496,477,65053,16,0,0.0001000000,1.027940,16.75
47,abft.inject,10,800,10000,100000,0.879313,5039,6244,16,0,0.0001000000,1.024502,16.51
48,abft.inject,10,800,10000,100000,0.888001,301,46339,16,0,0.0001000000,1.026082,15.55
49,abft.inject,10,800,10000,100000,0.879451,6883,18986,16,0,0.0001000000,1.025578,16.62
50,abft.inject,10,800,10000,100000,0.886817,2419,19220,16,0,0.0001000000,1.025466,15.63
0,abft.inject,12,800,10000,100000,0.886742,4217,77811,16,0,0.0001000000,1.004991,13.34
1,abft.inject,12,800,10000,100000,0.886144,4742,73679,16,0,0.0001000000,1.004284,13.33
2,abft.inject,12,800,10000,100000,0.880738,7813,717,16,0,0.0001000000,1.003813,13.97
3,abft.inject,12,800,10000,100000,0.890741,6822,60025,16,0,0.0001000000,1.004592,12.78
4,abft.inject,12,800,10000,100000,0.884540,4071,18431,16,0,0.0001000000,1.006141,13.75
5,abft.inject,12,800,10000,100000,0.892052,8414,79119,16,0,0.0001000000,1.004617,12.62
6,abft.inject,12,800,10000,100000,0.891649,9555,10628,16,0,0.0001000000,1.002541,12.44
7,abft.inject,12,800,10000,100000,0.888502,4919,77272,16,0,0.0001000000,1.005762,13.20
8,abft.inject,12,800,10000,100000,0.879698,6666,51816,16,0,0.0001000000,1.031496,17.26
9,abft.inject,12,800,10000,100000,0.883299,1525,12190,16,0,0.0001000000,1.005822,13.87
10,abft.inject,12,800,10000,100000,0.899982,5829,48946,16,0,0.0001000000,1.004396,11.60
11,abft.inject,12,800,10000,100000,0.889333,9817,64724,16,0,0.0001000000,1.003785,12.87
12,abft.inject,12,800,10000,100000,0.890067,1544,95423,16,0,0.0001000000,1.004920,12.90
13,abft.inject,12,800,10000,100000,0.898608,248,58218,16,0,0.0001000000,1.011649,12.58
14,abft.inject,12,800,10000,100000,0.882306,6530,63248,16,0,0.0001000000,1.006806,14.11
15,abft.inject,12,800,10000,100000,0.886967,6757,82075,16,0,0.0001000000,1.004785,13.28
16,abft.inject,12,800,10000,100000,0.894644,7347,2060,16,0,0.0001000000,1.004647,12.30
17,abft.inject,12,800,10000,100000,0.887456,2618,27468,16,0,0.0001000000,1.004511,13.19
18,abft.inject,12,800,10000,100000,0.879881,8984,80820,16,0,0.0001000000,1.007221,14.47
19,abft.inject,12,800,10000,100000,0.879212,1172,4821,16,0,0.0001000000,1.005420,14.35
20,abft.inject,12,800,10000,100000,0.892312,2488,69713,16,0,0.0001000000,1.004892,12.62
21,abft.inject,12,800,10000,100000,0.898791,3642,75619,16,0,0.0001000000,1.051850,17.03
22,abft.inject,12,800,10000,100000,0.881469,6337,18868,16,0,0.0001000000,1.004384,13.94
23,abft.inject,12,800,10000,100000,0.898826,5125,4729,16,0,0.0001000000,1.040624,15.78
24,abft.inject,12,800,10000,100000,0.881566,6259,38437,16,0,0.0001000000,1.007061,14.24
25,abft.inject,12,800,10000,100000,0.883138,6489,39385,16,0,0.0001000000,1.004573,13.75
26,abft.inject,12,800,10000,100000,0.887715,9937,46189,16,0,0.0001000000,1.004376,13.14
27,abft.inject,12,800,10000,100000,0.881465,7781,14316,16,0,0.0001000000,1.004252,13.93
28,abft.inject,12,800,10000,100000,0.880277,6280,96234,16,0,0.0001000000,1.007730,14.48
29,abft.inject,12,800,10000,100000,0.898459,2314,86046,16,0,0.0001000000,1.031209,14.78
30,abft.inject,12,800,10000,100000,0.886475,3732,86614,16,0,0.0001000000,1.005449,13.42
31,abft.inject,12,800,10000,100000,0.894667,2543,8606,16,0,0.0001000000,1.004806,12.31
32,abft.inject,12,800,10000,100000,0.880442,121,31220,16,0,0.0001000000,1.005273,14.18
33,abft.inject,12,800,10000,100000,0.899227,758,22714,16,0,0.0001000000,1.053682,17.18
34,abft.inject,12,800,10000,100000,0.879506,1965,35527,16,0,0.0001000000,1.005724,14.35
35,abft.inject,12,800,10000,100000,0.879552,8017,43685,16,0,0.0001000000,1.005200,14.29
36,abft.inject,12,800,10000,100000,0.881220,4979,14117,16,0,0.0001000000,1.004289,13.97
37,abft.inject,12,800,10000,100000,0.880829,8241,99817,16,0,0.0001000000,1.005072,14.11
38,abft.inject,12,800,10000,100000,0.880642,5481,32957,16,0,0.0001000000,1.007816,14.44
39,abft.inject,12,800,10000,100000,0.887233,9169,45109,16,0,0.0001000000,1.006215,13.41
40,abft.inject,12,800,10000,100000,0.880645,1351,20290,16,0,0.0001000000,1.004487,14.06
41,abft.inject,12,800,10000,100000,0.886791,5608,50971,16,0,0.0001000000,1.005189,13.35
42,abft.inject,12,800,10000,100000,0.879451,103,23749,16,0,0.0001000000,1.004747,14.25
43,abft.inject,12,800,10000,100000,0.889044,7650,69374,16,0,0.0001000000,1.006962,13.26
44,abft.inject,12,800,10000,100000,0.881156,2928,95748,16,0,0.0001000000,1.004886,14.04
45,abft.inject,12,800,10000,100000,0.898815,3761,86339,16,0,0.0001000000,1.050486,16.87
46,abft.inject,12,800,10000,100000,0.886880,2881,8746,16,0,0.0001000000,1.006107,13.44
47,abft.inject,12,800,10000,100000,0.899292,1264,40743,16,0,0.0001000000,1.047179,16.44
48,abft.inject,12,800,10000,100000,0.898742,8841,12641,16,0,0.0001000000,1.053935,17.27
49,abft.inject,12,800,10000,100000,0.884069,5920,47078,16,0,0.0001000000,1.004931,13.67
50,abft.inject,12,800,10000,100000,0.898811,3857,36157,16,0,0.0001000000,1.051996,17.04
0,abft.inject,14,800,10000,100000,0.879288,3939,74130,16,0,0.0001000000,0.992559,12.88
1,abft.inject,14,800,10000,100000,0.880486,1751,58559,16,0,0.0001000000,0.990746,12.52
2,abft.inject,14,800,10000,100000,0.901074,8157,12514,16,0,0.0001000000,1.021094,13.32
3,abft.inject,14,800,10000,100000,0.900748,1090,96567,16,0,0.0001000000,1.007119,11.81
4,abft.inject,14,800,10000,100000,0.879576,1734,98008,16,0,0.0001000000,0.990675,12.63
5,abft.inject,14,800,10000,100000,0.898743,3163,29476,16,0,0.0001000000,1.039038,15.61
6,abft.inject,14,800,10000,100000,0.899067,4525,90936,16,0,0.0001000000,1.014333,12.82
7,abft.inject,14,800,10000,100000,0.889870,1021,54573,16,0,0.0001000000,0.991371,11.41
8,abft.inject,14,800,10000,100000,0.882875,7131,65142,16,0,0.0001000000,0.992635,12.43
9,abft.inject,14,800,10000,100000,0.898862,462,45878,16,0,0.0001000000,1.033296,14.96
10,abft.inject,14,800,10000,100000,0.885865,1067,55770,16,0,0.0001000000,0.993009,12.09
11,abft.inject,14,800,10000,100000,0.879402,7372,3989,16,0,0.0001000000,0.990967,12.69
12,abft.inject,14,800,10000,100000,0.882877,550,52503,16,0,0.0001000000,0.991141,12.26
13,abft.inject,14,800,10000,100000,0.886865,1952,94791,16,0,0.0001000000,0.991963,11.85
14,abft.inject,14,800,10000,100000,0.898845,9898,18816,16,0,0.0001000000,1.009283,12.29
15,abft.inject,14,800,10000,100000,0.898882,3295,13715,16,0,0.0001000000,1.015459,12.97
16,abft.inject,14,800,10000,100000,0.883643,893,4204,16,0,0.0001000000,0.992004,12.26
17,abft.inject,14,800,10000,100000,0.881465,6809,26251,16,0,0.0001000000,0.991560,12.49
18,abft.inject,14,800,10000,100000,0.882800,5720,54531,16,0,0.0001000000,0.992120,12.38
19,abft.inject,14,800,10000,100000,0.883376,5008,72215,16,0,0.0001000000,0.991089,12.19
20,abft.inject,14,800,10000,100000,0.898641,3138,21278,16,0,0.0001000000,1.005637,11.91
21,abft.inject,14,800,10000,100000,0.898886,9380,41219,16,0,0.0001000000,1.025206,14.05
22,abft.inject,14,800,10000,100000,0.881810,3146,45898,16,0,0.0001000000,0.991822,12.48
23,abft.inject,14,800,10000,100000,0.880497,4165,94579,16,0,0.0001000000,0.991739,12.63
24,abft.inject,14,800,10000,100000,0.898743,9658,93691,16,0,0.0001000000,1.001081,11.39
25,abft.inject,14,800,10000,100000,0.894997,9003,60360,16,0,0.0001000000,0.991863,10.82
26,abft.inject,14,800,10000,100000,0.898756,7916,94626,16,0,0.0001000000,0.999102,11.16
27,abft.inject,14,800,10000,100000,0.901070,6939,21410,16,0,0.0001000000,1.020526,13.26
28,abft.inject,14,800,10000,100000,0.880298,2403,46437,16,0,0.0001000000,0.992356,12.73
29,abft.inject,14,800,10000,100000,0.879316,3348,4802,16,0,0.0001000000,0.991270,12.73
30,abft.inject,14,800,10000,100000,0.899828,4563,71532,16,0,0.0001000000,0.998101,10.92
31,abft.inject,14,800,10000,100000,0.881391,5691,60707,16,0,0.0001000000,0.992012,12.55
32,abft.inject,14,800,10000,100000,0.901641,7583,49247,16,0,0.0001000000,0.996438,10.51
33,abft.inject,14,800,10000,100000,0.895009,9196,54283,16,0,0.0001000000,0.991849,10.82
34,abft.inject,14,800,10000,100000,0.879309,4484,7312,16,0,0.0001000000,0.991281,12.73
35,abft.inject,14,800,10000,100000,0.900326,8151,26326,16,0,0.0001000000,1.037693,15.26
36,abft.inject,14,800,10000,100000,0.886171,8792,36879,16,0,0.0001000000,0.990923,11.82
37,abft.inject,14,800,10000,100000,0.901245,7382,3388,16,0,0.0001000000,1.039273,15.32
38,abft.inject,14,800,10000,100000,0.889733,3278,51378,16,0,0.0001000000,0.991827,11.47
39,abft.inject,14,800,10000,100000,0.898979,8977,1619,16,0,0.0001000000,1.006357,11.94
40,abft.inject,14,800,10000,100000,0.896187,2321,78191,16,0,0.0001000000,0.992089,10.70
41,abft.inject,14,800,10000,100000,0.879366,6052,43197,16,0,0.0001000000,0.991326,12.73
42,abft.inject,14,800,10000,100000,0.895261,2141,78393,16,0,0.0001000000,0.992287,10.84
43,abft.inject,14,800,10000,100000,0.887673,4612,61519,16,0,0.0001000000,0.992097,11.76
44,abft.inject,14,800,10000,100000,0.887490,8351,35761,16,0,0.0001000000,0.993803,11.98
45,abft.inject,14,800,10000,100000,0.898381,759,82290,16,0,0.0001000000,0.991353,10.35
46,abft.inject,14,800,10000,100000,0.894172,944,31088,16,0,0.0001000000,0.992824,11.03
47,abft.inject,14,800,10000,100000,0.886661,6960,31912,16,0,0.0001000000,0.993184,12.01
48,abft.inject,14,800,10000,100000,0.896358,9267,41765,16,0,0.0001000000,0.991056,10.56
49,abft.inject,14,800,10000,100000,0.888409,9942,24559,16,0,0.0001000000,0.990198,11.46
50,abft.inject,14,800,10000,100000,0.881158,2247,21883,16,0,0.0001000000,0.990721,12.43
0,abft.inject,16,800,10000,100000,0.879511,18,37207,16,0,0.0001000000,0.988973,12.45
1,abft.inject,16,800,10000,100000,0.893062,3311,51009,16,0,0.0001000000,0.988356,10.67
2,abft.inject,16,800,10000,100000,0.879549,8660,79166,16,0,0.0001000000,0.987206,12.24
3,abft.inject,16,800,10000,100000,0.879568,2262,16217,16,0,0.0001000000,0.986925,12.21
4,abft.inject,16,800,10000,100000,0.900504,5941,6595,16,0,0.0001000000,1.030283,14.41
5,abft.inject,16,800,10000,100000,0.882099,5058,24776,16,0,0.0001000000,1.009383,14.43
6,abft.inject,16,800,10000,100000,0.888092,7366,54803,16,0,0.0001000000,0.988329,11.29
7,abft.inject,16,800,10000,100000,0.882963,7146,89371,16,0,0.0001000000,0.987355,11.82
8,abft.inject,16,800,10000,100000,0.882895,5704,474,16,0,0.0001000000,0.986964,11.79
9,abft.inject,16,800,10000,100000,0.880569,9712,49755,16,0,0.0001000000,0.987739,12.17
10,abft.inject,16,800,10000,100000,0.879236,5799,38954,16,0,0.0001000000,0.988591,12.44
11,abft.inject,16,800,10000,100000,0.891107,6898,77611,16,0,0.0001000000,0.987837,10.86
12,abft.inject,16,800,10000,100000,0.881577,332,50655,16,0,0.0001000000,0.987325,12.00
13,abft.inject,16,800,10000,100000,0.879537,513,99306,16,0,0.0001000000,0.986755,12.19
14,abft.inject,16,800,10000,100000,0.880286,5404,92613,16,0,0.0001000000,0.987087,12.13
15,abft.inject,16,800,10000,100000,0.880443,9327,95538,16,0,0.0001000000,0.989164,12.35
16,abft.inject,16,800,10000,100000,0.898979,7089,37319,16,0,0.0001000000,1.030920,14.68
17,abft.inject,16,800,10000,100000,0.890307,3888,439,16,0,0.0001000000,0.986907,10.85
18,abft.inject,16,800,10000,100000,0.898437,3031,55772,16,0,0.0001000000,0.990498,10.25
19,abft.inject,16,800,10000,100000,0.890864,250,87012,16,0,0.0001000000,0.987377,10.83
20,abft.inject,16,800,10000,100000,0.882706,4224,17796,16,0,0.0001000000,0.988996,12.04
21,abft.inject,16,800,10000,100000,0.943381,4173,83551,16,0,0.0001000000,1.010865,7.15
22,abft.inject,16,800,10000,100000,0.880093,2181,72652,16,0,0.0001000000,0.986827,12.13
23,abft.inject,16,800,10000,100000,0.881799,6352,58147,16,0,0.0001000000,0.986887,11.92
24,abft.inject,16,800,10000,100000,0.884077,1592,38363,16,0,0.0001000000,0.987407,11.69
25,abft.inject,16,800,10000,100000,0.881628,8214,17375,16,0,0.0001000000,0.989389,12.22
26,abft.inject,16,800,10000,100000,0.895850,4444,61106,16,0,0.0001000000,0.991359,10.66
27,abft.inject,16,800,10000,100000,0.879680,6000,17310,16,0,0.0001000000,0.986789,12.18
28,abft.inject,16,800,10000,100000,0.879353,1272,54860,16,0,0.0001000000,0.986671,12.20
29,abft.inject,16,800,10000,100000,0.881098,9147,54015,16,0,0.0001000000,0.986938,12.01
30,abft.inject,16,800,10000,100000,0.879216,4098,99794,16,0,0.0001000000,0.989099,12.50
31,abft.inject,16,800,10000,100000,0.881918,6469,12597,16,0,0.0001000000,0.988643,12.10
32,abft.inject,16,800,10000,100000,0.881916,6091,44343,16,0,0.0001000000,0.986650,11.88
33,abft.inject,16,800,10000,100000,0.879584,5148,52849,16,0,0.0001000000,0.986512,12.16
34,abft.inject,16,800,10000,100000,0.883153,4458,29703,16,0,0.0001000000,0.986936,11.75
35,abft.inject,16,800,10000,100000,0.882087,1095,44693,16,0,0.0001000000,0.989088,12.13
36,abft.inject,16,800,10000,100000,0.879356,177,10494,16,0,0.0001000000,0.988612,12.42
37,abft.inject,16,800,10000,100000,0.886557,4722,92534,16,0,0.0001000000,0.986679,11.29
38,abft.inject,16,800,10000,100000,0.885011,3239,97326,16,0,0.0001000000,0.987243,11.55
39,abft.inject,16,800,10000,100000,0.882648,2209,87370,16,0,0.0001000000,0.987061,11.83
40,abft.inject,16,800,10000,100000,0.881696,3343,80453,16,0,0.0001000000,0.989001,12.17
41,abft.inject,16,800,10000,100000,0.882733,3883,72178,16,0,0.0001000000,0.989177,12.06
42,abft.inject,16,800,10000,100000,0.881544,100,99179,16,0,0.0001000000,0.990862,12.40
43,abft.inject,16,800,10000,100000,0.880201,5652,70344,16,0,0.0001000000,0.986928,12.13
44,abft.inject,16,800,10000,100000,0.880916,7419,9029,16,0,0.0001000000,0.987193,12.06
45,abft.inject,16,800,10000,100000,0.882724,2267,84667,16,0,0.0001000000,0.990730,12.24
46,abft.inject,16,800,10000,100000,0.879292,6752,77666,16,0,0.0001000000,0.988026,12.37
47,abft.inject,16,800,10000,100000,0.888931,3843,88436,16,0,0.0001000000,0.987219,11.06
48,abft.inject,16,800,10000,100000,0.898725,6004,94434,16,0,0.0001000000,0.987089,9.83
49,abft.inject,16,800,10000,100000,0.880803,8457,99877,16,0,0.0001000000,0.987026,12.06
50,abft.inject,16,800,10000,100000,0.879147,121,55156,16,0,0.0001000000,0.988801,12.47
0,abft.inject,18,800,10000,100000,0.879310,7807,53170,16,0,0.0001000000,0.970166,10.33
1,abft.inject,18,800,10000,100000,0.882153,1533,4473,16,0,0.0001000000,0.968352,9.77
2,abft.inject,18,800,10000,100000,0.879508,5844,30904,16,0,0.0001000000,0.969539,10.24
3,abft.inject,18,800,10000,100000,0.884405,7762,10675,16,0,0.0001000000,0.968734,9.54
4,abft.inject,18,800,10000,100000,0.891076,7985,25357,16,0,0.0001000000,0.968541,8.69
5,abft.inject,18,800,10000,100000,0.880369,8240,39604,16,0,0.0001000000,0.969590,10.13
6,abft.inject,18,800,10000,100000,0.879231,4103,67479,16,0,0.0001000000,0.968364,10.14
7,abft.inject,18,800,10000,100000,0.879243,3650,7127,16,0,0.0001000000,0.968779,10.18
8,abft.inject,18,800,10000,100000,0.879339,1539,39347,16,0,0.0001000000,0.968376,10.13
9,abft.inject,18,800,10000,100000,0.882405,6907,95589,16,0,0.0001000000,0.968977,9.81
10,abft.inject,18,800,10000,100000,0.882392,7531,79278,16,0,0.0001000000,0.967816,9.68
11,abft.inject,18,800,10000,100000,0.898964,3256,44852,16,0,0.0001000000,0.990334,10.16
12,abft.inject,18,800,10000,100000,0.879486,2657,26707,16,0,0.0001000000,0.969305,10.21
13,abft.inject,18,800,10000,100000,0.879348,2597,39073,16,0,0.0001000000,0.969638,10.27
14,abft.inject,18,800,10000,100000,0.884119,5399,64026,16,0,0.0001000000,0.968099,9.50
15,abft.inject,18,800,10000,100000,0.880738,1317,73718,16,0,0.0001000000,0.969234,10.05
16,abft.inject,18,800,10000,100000,0.882829,3877,8491,16,0,0.0001000000,0.967808,9.63
17,abft.inject,18,800,10000,100000,0.898549,1287,50277,16,0,0.0001000000,0.996454,10.90
18,abft.inject,18,800,10000,100000,0.882683,8644,88281,16,0,0.0001000000,0.968294,9.70
19,abft.inject,18,800,10000,100000,0.881392,5643,87478,16,0,0.0001000000,0.968252,9.85
20,abft.inject,18,800,10000,100000,0.902491,4256,23047,16,0,0.0001000000,0.970225,7.51
21,abft.inject,18,800,10000,100000,0.879182,2655,92091,16,0,0.0001000000,0.969878,10.32
22,abft.inject,18,800,10000,100000,0.884025,3800,95826,16,0,0.0001000000,0.969870,9.71
23,abft.inject,18,800,10000,100000,0.898771,5022,14205,16,0,0.0001000000,0.998878,11.14
24,abft.inject,18,800,10000,100000,0.882167,5541,63706,16,0,0.0001000000,0.968171,9.75
25,abft.inject,18,800,10000,100000,0.885801,1426,89706,16,0,0.0001000000,0.970266,9.54
26,abft.inject,18,800,10000,100000,0.879330,6654,95152,16,0,0.0001000000,0.968224,10.11
27,abft.inject,18,800,10000,100000,0.885151,1692,96566,16,0,0.0001000000,0.969950,9.58
28,abft.inject,18,800,10000,100000,0.879157,2502,81889,16,0,0.0001000000,0.968968,10.22
29,abft.inject,18,800,10000,100000,0.888082,6020,62831,16,0,0.0001000000,0.969470,9.16
30,abft.inject,18,800,10000,100000,0.887553,5642,98734,16,0,0.0001000000,0.969218,9.20
31,abft.inject,18,800,10000,100000,0.886575,1288,76037,16,0,0.0001000000,0.968461,9.24
32,abft.inject,18,800,10000,100000,0.881536,5844,80719,16,0,0.0001000000,0.970437,10.08
33,abft.inject,18,800,10000,100000,0.879960,2268,34130,16,0,0.0001000000,0.969332,10.16
34,abft.inject,18,800,10000,100000,0.900558,6415,79620,16,0,0.0001000000,0.968206,7.51
35,abft.inject,18,800,10000,100000,0.881204,1265,89587,16,0,0.0001000000,0.972474,10.36
36,abft.inject,18,800,10000,100000,0.879544,107,35015,16,0,0.0001000000,0.968518,10.12
37,abft.inject,18,800,10000,100000,0.882774,5790,83427,16,0,0.0001000000,0.970607,9.95
38,abft.inject,18,800,10000,100000,0.884312,2867,2807,16,0,0.0001000000,0.968352,9.50
39,abft.inject,18,800,10000,100000,0.879214,2173,47099,16,0,0.0001000000,0.970969,10.44
40,abft.inject,18,800,10000,100000,0.887618,320,5193,16,0,0.0001000000,0.969161,9.19
41,abft.inject,18,800,10000,100000,0.887523,3647,80822,16,0,0.0001000000,0.968969,9.18
42,abft.inject,18,800,10000,100000,0.889084,3026,97849,16,0,0.0001000000,0.968742,8.96
43,abft.inject,18,800,10000,100000,0.898815,364,59715,16,0,0.0001000000,1.012088,12.60
44,abft.inject,18,800,10000,100000,0.879329,3518,390,16,0,0.0001000000,0.970720,10.39
45,abft.inject,18,800,10000,100000,0.887109,4544,75759,16,0,0.0001000000,0.968743,9.20
46,abft.inject,18,800,10000,100000,0.898971,6053,763,16,0,0.0001000000,1.015797,13.00
47,abft.inject,18,800,10000,100000,0.898796,4197,61053,16,0,0.0001000000,1.011255,12.51
48,abft.inject,18,800,10000,100000,0.884159,9415,49692,16,0,0.0001000000,0.968520,9.54
49,abft.inject,18,800,10000,100000,0.888648,6796,40824,16,0,0.0001000000,0.971106,9.28
50,abft.inject,18,800,10000,100000,0.899824,9381,26141,16,0,0.0001000000,1.000298,11.17
0,abft.inject,20,800,10000,100000,0.884090,8521,24327,16,0,0.0001000000,0.961112,8.71
1,abft.inject,20,800,10000,100000,0.879315,2673,4872,16,0,0.0001000000,0.962262,9.43
2,abft.inject,20,800,10000,100000,0.898595,9446,91768,16,0,0.0001000000,1.005611,11.91
3,abft.inject,20,800,10000,100000,0.879201,5420,70719,16,0,0.0001000000,0.962982,9.53
4,abft.inject,20,800,10000,100000,0.881614,4213,68482,16,0,0.0001000000,0.961856,9.10
5,abft.inject,20,800,10000,100000,0.881860,5927,80958,16,0,0.0001000000,0.961202,9.00
6,abft.inject,20,800,10000,100000,0.879132,9053,41408,16,0,0.0001000000,0.961533,9.37
7,abft.inject,20,800,10000,100000,0.879400,9939,9872,16,0,0.0001000000,0.960957,9.27
8,abft.inject,20,800,10000,100000,0.879189,3820,81909,16,0,0.0001000000,0.964289,9.68
9,abft.inject,20,800,10000,100000,0.880758,1621,20327,16,0,0.0001000000,0.960750,9.08
10,abft.inject,20,800,10000,100000,0.879245,9711,33775,16,0,0.0001000000,0.962891,9.51
11,abft.inject,20,800,10000,100000,0.881645,735,55881,16,0,0.0001000000,0.963886,9.33
12,abft.inject,20,800,10000,100000,0.879608,7061,98252,16,0,0.0001000000,0.962952,9.48
13,abft.inject,20,800,10000,100000,0.879499,5978,64221,16,0,0.0001000000,0.963909,9.60
14,abft.inject,20,800,10000,100000,0.879853,3460,2319,16,0,0.0001000000,0.963790,9.54
15,abft.inject,20,800,10000,100000,0.879722,4871,51610,16,0,0.0001000000,0.960124,9.14
16,abft.inject,20,800,10000,100000,0.879124,6117,741,16,0,0.0001000000,0.960822,9.29
17,abft.inject,20,800,10000,100000,0.879792,4628,74443,16,0,0.0001000000,0.961240,9.26
18,abft.inject,20,800,10000,100000,0.879485,4742,44917,16,0,0.0001000000,0.963549,9.56
19,abft.inject,20,800,10000,100000,0.879695,3921,65717,16,0,0.0001000000,0.963479,9.52
20,abft.inject,20,800,10000,100000,0.879486,5084,65179,16,0,0.0001000000,0.960590,9.22
21,abft.inject,20,800,10000,100000,0.879849,7128,46345,16,0,0.0001000000,0.961653,9.30
22,abft.inject,20,800,10000,100000,0.881825,7619,53783,16,0,0.0001000000,0.961486,9.03
23,abft.inject,20,800,10000,100000,0.886807,3884,94254,16,0,0.0001000000,0.964318,8.74
24,abft.inject,20,800,10000,100000,0.879267,5979,82724,16,0,0.0001000000,0.962607,9.48
25,abft.inject,20,800,10000,100000,0.888265,5935,87262,16,0,0.0001000000,0.961084,8.20
26,abft.inject,20,800,10000,100000,0.898764,1597,26568,16,0,0.0001000000,1.008259,12.18
27,abft.inject,20,800,10000,100000,0.888936,4127,21909,16,0,0.0001000000,0.961314,8.14
28,abft.inject,20,800,10000,100000,0.881777,9424,39957,16,0,0.0001000000,0.962579,9.16
29,abft.inject,20,800,10000,100000,0.879893,6653,64683,16,0,0.0001000000,0.963470,9.50
30,abft.inject,20,800,10000,100000,0.881519,9441,11205,16,0,0.0001000000,0.961065,9.02
31,abft.inject,20,800,10000,100000,0.890318,5165,38212,16,0,0.0001000000,0.960782,7.91
32,abft.inject,20,800,10000,100000,0.881320,6688,46434,16,0,0.0001000000,0.961023,9.04
33,abft.inject,20,800,10000,100000,0.891107,4931,42265,16,0,0.0001000000,0.963771,8.15
34,abft.inject,20,800,10000,100000,0.883307,6320,61801,16,0,0.0001000000,0.964163,9.15
35,abft.inject,20,800,10000,100000,0.885363,2754,70916,16,0,0.0001000000,0.960761,8.52
36,abft.inject,20,800,10000,100000,0.893556,9644,86444,16,0,0.0001000000,0.963513,7.83
37,abft.inject,20,800,10000,100000,0.887690,1326,11410,16,0,0.0001000000,0.962692,8.45
38,abft.inject,20,800,10000,100000,0.887012,7714,21832,16,0,0.0001000000,0.962254,8.48
39,abft.inject,20,800,10000,100000,0.882667,1473,20411,16,0,0.0001000000,0.962069,9.00
40,abft.inject,20,800,10000,100000,0.879611,6306,89428,16,0,0.0001000000,0.962147,9.38
41,abft.inject,20,800,10000,100000,0.879279,54,61195,16,0,0.0001000000,0.961002,9.29
42,abft.inject,20,800,10000,100000,0.900013,7550,58655,16,0,0.0001000000,0.977338,8.59
43,abft.inject,20,800,10000,100000,0.879400,4441,71606,16,0,0.0001000000,0.961100,9.29
44,abft.inject,20,800,10000,100000,0.879375,1721,45575,16,0,0.0001000000,0.962625,9.47
45,abft.inject,20,800,10000,100000,0.898420,592,23484,16,0,0.0001000000,0.960580,6.92
46,abft.inject,20,800,10000,100000,0.898464,927,12894,16,0,0.0001000000,1.008023,12.19
47,abft.inject,20,800,10000,100000,0.897083,1432,7543,16,0,0.0001000000,0.961078,7.13
48,abft.inject,20,800,10000,100000,0.898413,4904,77732,16,0,0.0001000000,0.979512,9.03
49,abft.inject,20,800,10000,100000,0.879732,4722,58201,16,0,0.0001000000,0.961973,9.35
50,abft.inject,20,800,10000,100000,0.898643,5664,88325,16,0,0.0001000000,1.008215,12.19
0,abft.inject,22,800,10000,100000,0.879634,1341,55198,16,0,0.0001000000,0.957589,8.86
1,abft.inject,22,800,10000,100000,0.899733,5961,33699,16,0,0.0001000000,1.003448,11.53
2,abft.inject,22,800,10000,100000,0.896239,9641,4904,16,0,0.0001000000,0.958551,6.95
3,abft.inject,22,800,10000,100000,0.880121,952,76689,16,0,0.0001000000,0.959301,9.00
4,abft.inject,22,800,10000,100000,0.880910,6759,17669,16,0,0.0001000000,0.958122,8.77
5,abft.inject,22,800,10000,100000,0.888477,7651,75339,16,0,0.0001000000,0.956612,7.67
6,abft.inject,22,800,10000,100000,0.899642,5556,7502,16,0,0.0001000000,0.957719,6.46
7,abft.inject,22,800,10000,100000,0.898562,6505,11673,16,0,0.0001000000,1.003102,11.63
8,abft.inject,22,800,10000,100000,0.883392,3018,43156,16,0,0.0001000000,0.971527,9.98
9,abft.inject,22,800,10000,100000,0.889122,5952,1090,16,0,0.0001000000,0.957411,7.68
10,abft.inject,22,800,10000,100000,0.898524,4021,3171,16,0,0.0001000000,0.959040,6.74
11,abft.inject,22,800,10000,100000,0.880689,3095,42939,16,0,0.0001000000,0.958421,8.83
12,abft.inject,22,800,10000,100000,0.879277,378,91348,16,0,0.0001000000,0.958083,8.96
13,abft.inject,22,800,10000,100000,0.881931,3952,10711,16,0,0.0001000000,0.958715,8.71
14,abft.inject,22,800,10000,100000,0.898569,2043,45496,16,0,0.0001000000,0.964289,7.31
15,abft.inject,22,800,10000,100000,0.898612,750,85499,16,0,0.0001000000,0.986927,9.83
16,abft.inject,22,800,10000,100000,0.880873,9158,95771,16,0,0.0001000000,0.957816,8.73
17,abft.inject,22,800,10000,100000,0.898629,5912,40564,16,0,0.0001000000,1.003611,11.68
18,abft.inject,22,800,10000,100000,0.885948,4373,43458,16,0,0.0001000000,0.958973,8.24
19,abft.inject,22,800,10000,100000,0.887029,7285,81274,16,0,0.0001000000,0.958154,8.02
20,abft.inject,22,800,10000,100000,0.879240,6278,50264,16,0,0.0001000000,0.959849,9.17
21,abft.inject,22,800,10000,100000,0.890033,8579,34958,16,0,0.0001000000,0.960172,7.88
22,abft.inject,22,800,10000,100000,0.879713,3989,3527,16,0,0.0001000000,0.958401,8.94
23,abft.inject,22,800,10000,100000,0.888712,6752,81253,16,0,0.0001000000,0.958028,7.80
24,abft.inject,22,800,10000,100000,0.882831,6585,87370,16,0,0.0001000000,0.959160,8.65
25,abft.inject,22,800,10000,100000,0.879362,1224,62462,16,0,0.0001000000,0.957168,8.85
26,abft.inject,22,800,10000,100000,0.879456,5693,54655,16,0,0.0001000000,0.959828,9.14
27,abft.inject,22,800,10000,100000,0.879906,3236,76817,16,0,0.0001000000,0.957698,8.84
28,abft.inject,22,800,10000,100000,0.882916,9218,75943,16,0,0.0001000000,0.958178,8.52
29,abft.inject,22,800,10000,100000,0.886652,4879,17120,16,0,0.0001000000,0.957184,7.95
30,abft.inject,22,800,10000,100000,0.881515,5080,99339,16,0,0.0001000000,0.958309,8.71
31,abft.inject,22,800,10000,100000,0.882400,2211,85604,16,0,0.0001000000,0.960603,8.86
32,abft.inject,22,800,10000,100000,0.882783,6391,68866,16,0,0.0001000000,0.959756,8.72
33,abft.inject,22,800,10000,100000,0.884900,9704,52783,16,0,0.0001000000,0.957548,8.21
34,abft.inject,22,800,10000,100000,0.880590,3284,89400,16,0,0.0001000000,0.958617,8.86
35,abft.inject,22,800,10000,100000,0.884546,7893,80274,16,0,0.0001000000,0.958975,8.41
36,abft.inject,22,800,10000,100000,0.879232,4644,45457,16,0,0.0001000000,0.959626,9.14
37,abft.inject,22,800,10000,100000,0.885612,8898,26737,16,0,0.0001000000,0.958714,8.25
38,abft.inject,22,800,10000,100000,0.901087,8229,51764,16,0,0.0001000000,0.989916,9.86
39,abft.inject,22,800,10000,100000,0.887630,5189,8295,16,0,0.0001000000,0.960623,8.22
40,abft.inject,22,800,10000,100000,0.879199,3367,62894,16,0,0.0001000000,0.958091,8.97
41,abft.inject,22,800,10000,100000,0.879316,5555,33022,16,0,0.0001000000,0.959584,9.13
42,abft.inject,22,800,10000,100000,0.898506,2,39431,16,0,0.0001000000,0.994614,10.70
43,abft.inject,22,800,10000,100000,0.883378,6316,19800,16,0,0.0001000000,0.958310,8.48
44,abft.inject,22,800,10000,100000,0.884265,464,85833,16,0,0.0001000000,0.959310,8.49
45,abft.inject,22,800,10000,100000,0.884263,295,28571,16,0,0.0001000000,0.957314,8.26
46,abft.inject,22,800,10000,100000,0.885837,1410,71567,16,0,0.0001000000,0.959831,8.35
47,abft.inject,22,800,10000,100000,0.898701,8133,28797,16,0,0.0001000000,1.002820,11.59
48,abft.inject,22,800,10000,100000,0.886453,5654,81781,16,0,0.0001000000,0.961182,8.43
49,abft.inject,22,800,10000,100000,0.886280,8909,77947,16,0,0.0001000000,0.958484,8.15
50,abft.inject,22,800,10000,100000,0.887595,528,32280,16,0,0.0001000000,0.957977,7.93
0,abft.inject,24,800,10000,100000,0.879554,210,65405,16,0,0.0001000000,0.951918,8.23
1,abft.inject,24,800,10000,100000,0.890704,4074,76927,16,0,0.0001000000,0.959865,7.76
2,abft.inject,24,800,10000,100000,0.892061,6440,62887,16,0,0.0001000000,0.961389,7.77
3,abft.inject,24,800,10000,100000,0.885152,3136,64916,16,0,0.0001000000,0.951939,7.55
4,abft.inject,24,800,10000,100000,0.879884,334,41984,16,0,0.0001000000,0.951516,8.14
5,abft.inject,24,800,10000,100000,0.879116,2286,65777,16,0,0.0001000000,0.954103,8.53
6,abft.inject,24,800,10000,100000,0.880387,1386,752,16,0,0.0001000000,0.952700,8.21
7,abft.inject,24,800,10000,100000,0.884346,8714,84611,16,0,0.0001000000,0.955467,8.04
8,abft.inject,24,800,10000,100000,0.882255,4526,93176,16,0,0.0001000000,0.950430,7.73
9,abft.inject,24,800,10000,100000,0.879510,7863,47888,16,0,0.0001000000,0.950293,8.05
10,abft.inject,24,800,10000,100000,0.879383,6666,27574,16,0,0.0001000000,0.950715,8.11
11,abft.inject,24,800,10000,100000,0.880620,6775,63851,16,0,0.0001000000,0.951332,8.03
12,abft.inject,24,800,10000,100000,0.884093,8523,676,16,0,0.0001000000,0.952337,7.72
13,abft.inject,24,800,10000,100000,0.895096,4715,31526,16,0,0.0001000000,0.951875,6.34
14,abft.inject,24,800,10000,100000,0.886095,7524,64650,16,0,0.0001000000,0.950301,7.25
15,abft.inject,24,800,10000,100000,0.898503,4292,76243,16,0,0.0001000000,0.998219,11.10
16,abft.inject,24,800,10000,100000,0.887008,6573,47964,16,0,0.0001000000,0.950501,7.16
17,abft.inject,24,800,10000,100000,0.898505,245,84532,16,0,0.0001000000,0.999625,11.25
18,abft.inject,24,800,10000,100000,0.886291,7088,59768,16,0,0.0001000000,0.952367,7.46
19,abft.inject,24,800,10000,100000,0.885144,8132,73761,16,0,0.0001000000,0.951412,7.49
20,abft.inject,24,800,10000,100000,0.879391,7615,49596,16,0,0.0001000000,0.949937,8.02
21,abft.inject,24,800,10000,100000,0.900016,4678,22871,16,0,0.0001000000,0.997994,10.89
22,abft.inject,24,800,10000,100000,0.881614,6666,74217,16,0,0.0001000000,0.951966,7.98
23,abft.inject,24,800,10000,100000,0.898609,3256,83331,16,0,0.0001000000,1.000656,11.36
24,abft.inject,24,800,10000,100000,0.880182,1878,54308,16,0,0.0001000000,0.952240,8.19
25,abft.inject,24,800,10000,100000,0.879212,6750,63423,16,0,0.0001000000,0.951049,8.17
26,abft.inject,24,800,10000,100000,0.884753,7437,30714,16,0,0.0001000000,0.950249,7.40
27,abft.inject,24,800,10000,100000,0.898507,6282,74998,16,0,0.0001000000,0.999543,11.24
28,abft.inject,24,800,10000,100000,0.889646,736,52058,16,0,0.0001000000,0.951939,7.00
29,abft.inject,24,800,10000,100000,0.879305,1306,95610,16,0,0.0001000000,0.952074,8.28
30,abft.inject,24,800,10000,100000,0.887736,2929,89302,16,0,0.0001000000,0.950984,7.12
31,abft.inject,24,800,10000,100000,0.888352,2829,37078,16,0,0.0001000000,0.950577,7.00
32,abft.inject,24,800,10000,100000,0.887142,269,45908,16,0,0.0001000000,0.956439,7.81
33,abft.inject,24,800,10000,100000,0.898607,2492,96607,16,0,0.0001000000,0.971319,8.09
34,abft.inject,24,800,10000,100000,0.880741,3245,59902,16,0,0.0001000000,0.950261,7.89
35,abft.inject,24,800,10000,100000,0.884338,3460,55945,16,0,0.0001000000,0.950697,7.50
36,abft.inject,24,800,10000,100000,0.896462,535,43381,16,0,0.0001000000,0.950864,6.07
37,abft.inject,24,800,10000,100000,0.879331,426,74716,16,0,0.0001000000,0.949682,8.00
38,abft.inject,24,800,10000,100000,0.896697,4443,66130,16,0,0.0001000000,0.951388,6.10
39,abft.inject,24,800,10000,100000,0.890508,5890,3140,16,0,0.0001000000,0.950935,6.79
40,abft.inject,24,800,10000,100000,0.881843,5504,74925,16,0,0.0001000000,0.950734,7.81
41,abft.inject,24,800,10000,100000,0.900140,5547,78648,16,0,0.0001000000,0.998234,10.90
42,abft.inject,24,800,10000,100000,0.898662,5058,31182,16,0,0.0001000000,0.950380,5.75
43,abft.inject,24,800,10000,100000,0.898655,1666,18956,16,0,0.0001000000,0.951862,5.92
44,abft.inject,24,800,10000,100000,0.898636,7206,61870,16,0,0.0001000000,0.950808,5.81
45,abft.inject,24,800,10000,100000,0.898503,437,58127,16,0,0.0001000000,0.951399,5.89
46,abft.inject,24,800,10000,100000,0.883804,138,76181,16,0,0.0001000000,0.950667,7.57
47,abft.inject,24,800,10000,100000,0.879260,3301,3175,16,0,0.0001000000,0.950554,8.11
48,abft.inject,24,800,10000,100000,0.896294,6942,30835,16,0,0.0001000000,0.951508,6.16
49,abft.inject,24,800,10000,100000,0.901786,9679,16180,16,0,0.0001000000,0.951368,5.50
50,abft.inject,24,800,10000,100000,0.882869,2567,51590,16,0,0.0001000000,0.950365,7.65
0,abft.inject,26,800,10000,100000,0.899871,6509,67891,16,0,0.0001000000,0.977115,8.58
1,abft.inject,26,800,10000,100000,0.898887,9457,77751,16,0,0.0001000000,0.955601,6.31
2,abft.inject,26,800,10000,100000,0.886710,360,5966,16,0,0.0001000000,0.946199,6.71
3,abft.inject,26,800,10000,100000,0.898771,9077,28720,16,0,0.0001000000,0.959425,6.75
4,abft.inject,26,800,10000,100000,0.879315,972,37110,16,0,0.0001000000,0.946600,7.65
5,abft.inject,26,800,10000,100000,0.883326,3526,67974,16,0,0.0001000000,0.948082,7.33
6,abft.inject,26,800,10000,100000,0.879263,3858,97824,16,0,0.0001000000,0.947031,7.71
7,abft.inject,26,800,10000,100000,0.881667,4543,26416,16,0,0.0001000000,0.947228,7.44
8,abft.inject,26,800,10000,100000,0.881339,3190,15524,16,0,0.0001000000,0.947253,7.48
9,abft.inject,26,800,10000,100000,0.898598,8821,40926,16,0,0.0001000000,0.968791,7.81
10,abft.inject,26,800,10000,100000,0.898938,1741,47799,16,0,0.0001000000,0.989315,10.05
11,abft.inject,26,800,10000,100000,0.879907,8081,10133,16,0,0.0001000000,0.947162,7.64
12,abft.inject,26,800,10000,100000,0.900560,9697,29488,16,0,0.0001000000,0.997161,10.73
13,abft.inject,26,800,10000,100000,0.901031,8,36933,16,0,0.0001000000,0.973029,7.99
14,abft.inject,26,800,10000,100000,0.887347,1384,87050,16,0,0.0001000000,0.947027,6.73
15,abft.inject,26,800,10000,100000,0.882251,3831,8129,16,0,0.0001000000,0.947334,7.38
16,abft.inject,26,800,10000,100000,0.898796,7048,50012,16,0,0.0001000000,0.994478,10.65
17,abft.inject,26,800,10000,100000,0.881531,3327,70118,16,0,0.0001000000,0.946238,7.34
18,abft.inject,26,800,10000,100000,0.900103,5677,9919,16,0,0.0001000000,0.981660,9.06
19,abft.inject,26,800,10000,100000,0.885458,2189,51898,16,0,0.0001000000,0.949810,7.27
20,abft.inject,26,800,10000,100000,0.884984,4144,96238,16,0,0.0001000000,0.949237,7.26
21,abft.inject,26,800,10000,100000,0.884595,1757,38656,16,0,0.0001000000,0.946994,7.05
22,abft.inject,26,800,10000,100000,0.901376,258,17437,16,0,0.0001000000,0.993879,10.26
23,abft.inject,26,800,10000,100000,0.881567,3734,1549,16,0,0.0001000000,0.947134,7.44
24,abft.inject,26,800,10000,100000,0.885922,5557,77175,16,0,0.0001000000,0.946585,6.85
25,abft.inject,26,800,10000,100000,0.898419,2466,16390,16,0,0.0001000000,0.983115,9.43
26,abft.inject,26,800,10000,100000,0.879259,9572,7091,16,0,0.0001000000,0.946752,7.68
27,abft.inject,26,800,10000,100000,0.900783,9729,75604,16,0,0.0001000000,0.982612,9.08
28,abft.inject,26,800,10000,100000,0.881033,7600,3374,16,0,0.0001000000,0.950309,7.86
29,abft.inject,26,800,10000,100000,0.880662,2579,62984,16,0,0.0001000000,0.947155,7.55
30,abft.inject,26,800,10000,100000,0.898888,7955,63975,16,0,0.0001000000,0.974581,8.42
31,abft.inject,26,800,10000,100000,0.888541,4919,60060,16,0,0.0001000000,0.947079,6.59
32,abft.inject,26,800,10000,100000,0.887683,1682,95607,16,0,0.0001000000,0.949220,6.93
33,abft.inject,26,800,10000,100000,0.890804,1382,16704,16,0,0.0001000000,0.947336,6.35
34,abft.inject,26,800,10000,100000,0.886333,992,3899,16,0,0.0001000000,0.947642,6.92
35,abft.inject,26,800,10000,100000,0.891545,1888,63335,16,0,0.0001000000,0.949036,6.45
36,abft.inject,26,800,10000,100000,0.879391,4435,17157,16,0,0.0001000000,0.947057,7.69
37,abft.inject,26,800,10000,100000,0.898594,885,9194,16,0,0.0001000000,0.996167,10.86
38,abft.inject,26,800,10000,100000,0.880502,4718,40179,16,0,0.0001000000,0.947064,7.56
39,abft.inject,26,800,10000,100000,0.893430,3820,11348,16,0,0.0001000000,0.947111,6.01
40,abft.inject,26,800,10000,100000,0.880314,9898,89626,16,0,0.0001000000,0.947286,7.61
41,abft.inject,26,800,10000,100000,0.891284,4360,51708,16,0,0.0001000000,0.947870,6.35
42,abft.inject,26,800,10000,100000,0.881218,2543,42487,16,0,0.0001000000,0.949496,7.75
43,abft.inject,26,800,10000,100000,0.879319,7684,11202,16,0,0.0001000000,0.950633,8.11
44,abft.inject,26,800,10000,100000,0.879844,8984,60071,16,0,0.0001000000,0.946795,7.61
45,abft.inject,26,800,10000,100000,0.898923,524,66798,16,0,0.0001000000,0.993898,10.57
46,abft.inject,26,800,10000,100000,0.880940,1827,64261,16,0,0.0001000000,0.947183,7.52
47,abft.inject,26,800,10000,100000,0.879399,538,12071,16,0,0.0001000000,0.949059,7.92
48,abft.inject,26,800,10000,100000,0.879821,1271,84654,16,0,0.0001000000,0.948226,7.77
49,abft.inject,26,800,10000,100000,0.898594,2440,50301,16,0,0.0001000000,0.993847,10.60
50,abft.inject,26,800,10000,100000,0.879503,4354,48628,16,0,0.0001000000,0.947287,7.71
0,abft.inject,28,800,10000,100000,0.900252,8321,13978,16,0,0.0001000000,0.951295,5.67
1,abft.inject,28,800,10000,100000,0.879800,3554,26938,16,0,0.0001000000,0.947168,7.66
2,abft.inject,28,800,10000,100000,0.898567,5523,34334,16,0,0.0001000000,0.946716,5.36
3,abft.inject,28,800,10000,100000,0.889209,5296,24540,16,0,0.0001000000,0.944991,6.27
4,abft.inject,28,800,10000,100000,0.882397,3130,3685,16,0,0.0001000000,0.946087,7.22
5,abft.inject,28,800,10000,100000,0.891918,8252,86466,16,0,0.0001000000,0.944642,5.91
6,abft.inject,28,800,10000,100000,0.884573,1465,14600,16,0,0.0001000000,0.948170,7.19
7,abft.inject,28,800,10000,100000,0.885706,4350,14159,16,0,0.0001000000,0.947118,6.93
8,abft.inject,28,800,10000,100000,0.884220,8765,97296,16,0,0.0001000000,0.945128,6.89
9,abft.inject,28,800,10000,100000,0.888011,4941,14151,16,0,0.0001000000,0.946278,6.56
10,abft.inject,28,800,10000,100000,0.889401,1993,62278,16,0,0.0001000000,0.944932,6.24
11,abft.inject,28,800,10000,100000,0.895576,3657,27859,16,0,0.0001000000,0.945331,5.56
12,abft.inject,28,800,10000,100000,0.879229,2202,70818,16,0,0.0001000000,0.945428,7.53
13,abft.inject,28,800,10000,100000,0.879867,3376,64794,16,0,0.0001000000,0.946001,7.52
14,abft.inject,28,800,10000,100000,0.879409,5122,12003,16,0,0.0001000000,0.946365,7.61
15,abft.inject,28,800,10000,100000,0.880749,6410,73066,16,0,0.0001000000,0.945695,7.37
16,abft.inject,28,800,10000,100000,0.879353,2486,57758,16,0,0.0001000000,0.945442,7.52
17,abft.inject,28,800,10000,100000,0.887043,9766,34129,16,0,0.0001000000,0.946661,6.72
18,abft.inject,28,800,10000,100000,0.879425,530,56214,16,0,0.0001000000,0.944513,7.40
19,abft.inject,28,800,10000,100000,0.879412,3297,881,16,0,0.0001000000,0.944988,7.46
20,abft.inject,28,800,10000,100000,0.879087,2588,14733,16,0,0.0001000000,0.947593,7.79
21,abft.inject,28,800,10000,100000,0.879636,2450,6292,16,0,0.0001000000,0.945327,7.47
22,abft.inject,28,800,10000,100000,0.881729,220,67503,16,0,0.0001000000,0.945829,7.27
23,abft.inject,28,800,10000,100000,0.880429,7731,9690,16,0,0.0001000000,0.948193,7.70
24,abft.inject,28,800,10000,100000,0.886037,2101,58428,16,0,0.0001000000,0.945086,6.66
25,abft.inject,28,800,10000,100000,0.879524,4659,45857,16,0,0.0001000000,0.945400,7.49
26,abft.inject,28,800,10000,100000,0.898709,8414,62165,16,0,0.0001000000,0.991089,10.28
27,abft.inject,28,800,10000,100000,0.881476,6552,65460,16,0,0.0001000000,0.944492,7.15
28,abft.inject,28,800,10000,100000,0.880053,5107,53875,16,0,0.0001000000,0.946451,7.54
29,abft.inject,28,800,10000,100000,0.879469,2979,56671,16,0,0.0001000000,0.945275,7.48
30,abft.inject,28,800,10000,100000,0.879487,8760,37072,16,0,0.0001000000,0.946429,7.61
31,abft.inject,28,800,10000,100000,0.879208,7601,85336,16,0,0.0001000000,0.945534,7.54
32,abft.inject,28,800,10000,100000,0.899234,3230,97859,16,0,0.0001000000,0.945666,5.16
33,abft.inject,28,800,10000,100000,0.880440,9491,28655,16,0,0.0001000000,0.945451,7.38
34,abft.inject,28,800,10000,100000,0.898934,7128,58299,16,0,0.0001000000,0.990793,10.22
35,abft.inject,28,800,10000,100000,0.879339,6382,45073,16,0,0.0001000000,0.946238,7.61
36,abft.inject,28,800,10000,100000,0.883681,1870,6226,16,0,0.0001000000,0.945921,7.04
37,abft.inject,28,800,10000,100000,0.879362,9886,19768,16,0,0.0001000000,0.948607,7.87
38,abft.inject,28,800,10000,100000,0.900139,6870,68563,16,0,0.0001000000,0.982762,9.18
39,abft.inject,28,800,10000,100000,0.879329,3669,18441,16,0,0.0001000000,0.946525,7.64
40,abft.inject,28,800,10000,100000,0.880357,7920,91534,16,0,0.0001000000,0.945983,7.45
41,abft.inject,28,800,10000,100000,0.898578,6095,15103,16,0,0.0001000000,0.991030,10.29
42,abft.inject,28,800,10000,100000,0.886998,8072,20166,16,0,0.0001000000,0.946627,6.72
43,abft.inject,28,800,10000,100000,0.899818,7010,94360,16,0,0.0001000000,0.991159,10.15
44,abft.inject,28,800,10000,100000,0.879787,9181,60714,16,0,0.0001000000,0.945568,7.48
45,abft.inject,28,800,10000,100000,0.888302,7455,89183,16,0,0.0001000000,0.946962,6.60
46,abft.inject,28,800,10000,100000,0.879336,1973,53042,16,0,0.0001000000,0.945924,7.57
47,abft.inject,28,800,10000,100000,0.879654,9784,4877,16,0,0.0001000000,0.946533,7.60
48,abft.inject,28,800,10000,100000,0.879887,3569,36745,16,0,0.0001000000,0.946693,7.59
49,abft.inject,28,800,10000,100000,0.898375,2302,58198,16,0,0.0001000000,0.990979,10.31
50,abft.inject,28,800,10000,100000,0.881450,3240,61494,16,0,0.0001000000,0.945761,7.30
0,abft.inject,30,800,10000,100000,0.879722,6777,97802,16,0,0.0001000000,0.941991,7.08
1,abft.inject,30,800,10000,100000,0.883182,3879,41498,16,0,0.0001000000,0.944900,6.99
2,abft.inject,30,800,10000,100000,0.898584,2890,36525,16,0,0.0001000000,0.990936,10.28
3,abft.inject,30,800,10000,100000,0.880555,2394,47799,16,0,0.0001000000,0.943609,7.16
4,abft.inject,30,800,10000,100000,0.879085,1164,32100,16,0,0.0001000000,0.943510,7.33
5,abft.inject,30,800,10000,100000,0.883816,6316,23407,16,0,0.0001000000,0.943476,6.75
6,abft.inject,30,800,10000,100000,0.897226,5921,27926,16,0,0.0001000000,0.943323,5.14
7,abft.inject,30,800,10000,100000,0.882040,2839,5467,16,0,0.0001000000,0.944561,7.09
8,abft.inject,30,800,10000,100000,0.882757,5455,39685,16,0,0.0001000000,0.942601,6.78
9,abft.inject,30,800,10000,100000,0.889370,3062,19058,16,0,0.0001000000,0.942804,6.01
10,abft.inject,30,800,10000,100000,0.900154,4168,83204,16,0,0.0001000000,0.988565,9.82
11,abft.inject,30,800,10000,100000,0.880498,5815,27691,16,0,0.0001000000,0.944973,7.32
12,abft.inject,30,800,10000,100000,0.879329,8839,64317,16,0,0.0001000000,0.943905,7.34
13,abft.inject,30,800,10000,100000,0.880002,5299,31160,16,0,0.0001000000,0.942835,7.14
14,abft.inject,30,800,10000,100000,0.898913,2427,48054,16,0,0.0001000000,0.988218,9.93
15,abft.inject,30,800,10000,100000,0.883433,8688,80439,16,0,0.0001000000,0.943311,6.78
16,abft.inject,30,800,10000,100000,0.901296,647,13501,16,0,0.0001000000,0.988817,9.71
17,abft.inject,30,800,10000,100000,0.879452,2107,31068,16,0,0.0001000000,0.943887,7.33
18,abft.inject,30,800,10000,100000,0.885153,7560,90435,16,0,0.0001000000,0.943397,6.58
19,abft.inject,30,800,10000,100000,0.888977,5176,99653,16,0,0.0001000000,0.943580,6.14
20,abft.inject,30,800,10000,100000,0.880317,7862,17815,16,0,0.0001000000,0.943344,7.16
21,abft.inject,30,800,10000,100000,0.879439,6139,43646,16,0,0.0001000000,0.943990,7.34
22,abft.inject,30,800,10000,100000,0.881084,9196,52558,16,0,0.0001000000,0.943729,7.11
23,abft.inject,30,800,10000,100000,0.879385,1953,47572,16,0,0.0001000000,0.943316,7.27
24,abft.inject,30,800,10000,100000,0.879260,4253,59564,16,0,0.0001000000,0.942501,7.19
25,abft.inject,30,800,10000,100000,0.880959,4932,73393,16,0,0.0001000000,0.944063,7.16
26,abft.inject,30,800,10000,100000,0.898436,4138,69352,16,0,0.0001000000,0.988477,10.02
27,abft.inject,30,800,10000,100000,0.886314,2663,95467,16,0,0.0001000000,0.943543,6.46
28,abft.inject,30,800,10000,100000,0.884756,8697,87499,16,0,0.0001000000,0.943885,6.68
29,abft.inject,30,800,10000,100000,0.879096,215,59977,16,0,0.0001000000,0.943835,7.36
30,abft.inject,30,800,10000,100000,0.879236,593,73394,16,0,0.0001000000,0.945002,7.48
31,abft.inject,30,800,10000,100000,0.879181,8721,84185,16,0,0.0001000000,0.943154,7.28
32,abft.inject,30,800,10000,100000,0.881988,8435,6919,16,0,0.0001000000,0.941344,6.73
33,abft.inject,30,800,10000,100000,0.900168,952,9073,16,0,0.0001000000,0.964868,7.19
34,abft.inject,30,800,10000,100000,0.886359,1925,20836,16,0,0.0001000000,0.942907,6.38
35,abft.inject,30,800,10000,100000,0.882110,6324,66805,16,0,0.0001000000,0.944656,7.09
36,abft.inject,30,800,10000,100000,0.879466,7170,33269,16,0,0.0001000000,0.942425,7.16
37,abft.inject,30,800,10000,100000,0.881311,5370,46478,16,0,0.0001000000,0.942941,6.99
38,abft.inject,30,800,10000,100000,0.900121,1943,72874,16,0,0.0001000000,0.989093,9.88
39,abft.inject,30,800,10000,100000,0.880893,5930,21462,16,0,0.0001000000,0.943072,7.06
40,abft.inject,30,800,10000,100000,0.882101,5175,36559,16,0,0.0001000000,0.943837,7.00
41,abft.inject,30,800,10000,100000,0.885941,8336,83376,16,0,0.0001000000,0.942146,6.34
42,abft.inject,30,800,10000,100000,0.899324,1394,9270,16,0,0.0001000000,0.943812,4.95
43,abft.inject,30,800,10000,100000,0.889183,9727,97926,16,0,0.0001000000,0.944358,6.21
44,abft.inject,30,800,10000,100000,0.898903,6380,49692,16,0,0.0001000000,0.988526,9.97
45,abft.inject,30,800,10000,100000,0.898744,9710,51737,16,0,0.0001000000,0.980489,9.10
46,abft.inject,30,800,10000,100000,0.887877,1992,4901,16,0,0.0001000000,0.941880,6.08
47,abft.inject,30,800,10000,100000,0.879490,7837,3903,16,0,0.0001000000,0.943069,7.23
48,abft.inject,30,800,10000,100000,0.880705,2853,12545,16,0,0.0001000000,0.946163,7.43
49,abft.inject,30,800,10000,100000,0.879222,6163,53639,16,0,0.0001000000,0.943150,7.27
50,abft.inject,30,800,10000,100000,0.879405,7900,94918,16,0,0.0001000000,0.943589,7.30
0,abft.inject,32,800,10000,100000,0.879348,3114,1396,16,0,0.0001000000,0.939792,6.87
1,abft.inject,32,800,10000,100000,0.879133,6401,15164,16,0,0.0001000000,0.940406,6.97
2,abft.inject,32,800,10000,100000,0.880551,9649,59094,16,0,0.0001000000,0.940284,6.78
3,abft.inject,32,800,10000,100000,0.879642,9718,36857,16,0,0.0001000000,0.940211,6.89
4,abft.inject,32,800,10000,100000,0.879338,8497,84803,16,0,0.0001000000,0.939324,6.82
5,abft.inject,32,800,10000,100000,0.880478,21,95990,16,0,0.0001000000,0.939369,6.69
6,abft.inject,32,800,10000,100000,0.879272,2898,37751,16,0,0.0001000000,0.940895,7.01
7,abft.inject,32,800,10000,100000,0.880423,9603,20773,16,0,0.0001000000,0.939960,6.76
8,abft.inject,32,800,10000,100000,0.879279,9602,1794,16,0,0.0001000000,0.940133,6.92
9,abft.inject,32,800,10000,100000,0.879595,8752,65374,16,0,0.0001000000,0.939609,6.82
10,abft.inject,32,800,10000,100000,0.900192,1412,35321,16,0,0.0001000000,0.955656,6.16
11,abft.inject,32,800,10000,100000,0.889738,6465,56243,16,0,0.0001000000,0.941699,5.84
12,abft.inject,32,800,10000,100000,0.879359,7665,58404,16,0,0.0001000000,0.940952,7.00
13,abft.inject,32,800,10000,100000,0.884533,4445,37749,16,0,0.0001000000,0.940264,6.30
14,abft.inject,32,800,10000,100000,0.879413,9223,26416,16,0,0.0001000000,0.938904,6.76
15,abft.inject,32,800,10000,100000,0.880391,3032,87663,16,0,0.0001000000,0.938696,6.62
16,abft.inject,32,800,10000,100000,0.885743,1677,32510,16,0,0.0001000000,0.940168,6.14
17,abft.inject,32,800,10000,100000,0.879593,7185,22984,16,0,0.0001000000,0.939745,6.84
18,abft.inject,32,800,10000,100000,0.879261,8559,70958,16,0,0.0001000000,0.940639,6.98
19,abft.inject,32,800,10000,100000,0.879456,4067,33959,16,0,0.0001000000,0.939466,6.82
20,abft.inject,32,800,10000,100000,0.879933,3560,25329,16,0,0.0001000000,0.938038,6.60
21,abft.inject,32,800,10000,100000,0.890318,4230,39501,16,0,0.0001000000,0.940100,5.59
22,abft.inject,32,800,10000,100000,0.885243,490,71919,16,0,0.0001000000,0.940431,6.23
23,abft.inject,32,800,10000,100000,0.879783,4815,50410,16,0,0.0001000000,0.940728,6.93
24,abft.inject,32,800,10000,100000,0.898724,4702,37356,16,0,0.0001000000,0.985423,9.65
25,abft.inject,32,800,10000,100000,0.885477,796,8213,16,0,0.0001000000,0.940872,6.26
26,abft.inject,32,800,10000,100000,0.890559,7571,91650,16,0,0.0001000000,0.939460,5.49
27,abft.inject,32,800,10000,100000,0.881743,9756,58702,16,0,0.0001000000,0.940821,6.70
28,abft.inject,32,800,10000,100000,0.881107,2019,8686,16,0,0.0001000000,0.942419,6.96
29,abft.inject,32,800,10000,100000,0.879559,4157,113,16,0,0.0001000000,0.940620,6.94
30,abft.inject,32,800,10000,100000,0.879376,6608,44449,16,0,0.0001000000,0.941051,7.01
31,abft.inject,32,800,10000,100000,0.879410,5747,17885,16,0,0.0001000000,0.940168,6.91
32,abft.inject,32,800,10000,100000,0.883107,770,90718,16,0,0.0001000000,0.939111,6.34
33,abft.inject,32,800,10000,100000,0.900495,9196,36928,16,0,0.0001000000,0.965495,7.22
34,abft.inject,32,800,10000,100000,0.898382,1536,41942,16,0,0.0001000000,0.940254,4.66
35,abft.inject,32,800,10000,100000,0.879521,297,11804,16,0,0.0001000000,0.940244,6.90
36,abft.inject,32,800,10000,100000,0.879341,3583,32944,16,0,0.0001000000,0.940737,6.98
37,abft.inject,32,800,10000,100000,0.881818,2247,11423,16,0,0.0001000000,0.940947,6.71
38,abft.inject,32,800,10000,100000,0.888242,9165,54585,16,0,0.0001000000,0.938952,5.71
39,abft.inject,32,800,10000,100000,0.879369,8508,6333,16,0,0.0001000000,0.940554,6.96
40,abft.inject,32,800,10000,100000,0.879344,7389,14270,16,0,0.0001000000,0.940236,6.92
41,abft.inject,32,800,10000,100000,0.879526,2159,65352,16,0,0.0001000000,0.940259,6.91
42,abft.inject,32,800,10000,100000,0.879308,6322,82474,16,0,0.0001000000,0.941731,7.10
43,abft.inject,32,800,10000,100000,0.881057,5606,85414,16,0,0.0001000000,0.942040,6.92
44,abft.inject,32,800,10000,100000,0.880121,3586,83456,16,0,0.0001000000,0.939920,6.79
45,abft.inject,32,800,10000,100000,0.883603,5716,11381,16,0,0.0001000000,0.941113,6.51
46,abft.inject,32,800,10000,100000,0.880688,6757,44723,16,0,0.0001000000,0.940336,6.77
47,abft.inject,32,800,10000,100000,0.879371,6663,1503,16,0,0.0001000000,0.942339,7.16
48,abft.inject,32,800,10000,100000,0.882482,3637,71157,16,0,0.0001000000,0.941817,6.72
49,abft.inject,32,800,10000,100000,0.879497,298,43428,16,0,0.0001000000,0.940178,6.90
50,abft.inject,32,800,10000,100000,0.879726,7862,11514,16,0,0.0001000000,0.940399,6.90
0,abft.inject,34,800,10000,100000,0.899959,5296,59794,16,0,0.0001000000,0.983162,9.25
1,abft.inject,34,800,10000,100000,0.880166,8008,32952,16,0,0.0001000000,0.939034,6.69
2,abft.inject,34,800,10000,100000,0.881070,4159,60944,16,0,0.0001000000,0.938733,6.54
3,abft.inject,34,800,10000,100000,0.879642,5219,83567,16,0,0.0001000000,0.935783,6.38
4,abft.inject,34,800,10000,100000,0.879707,9783,5661,16,0,0.0001000000,0.936745,6.48
5,abft.inject,34,800,10000,100000,0.881519,7390,34310,16,0,0.0001000000,0.937663,6.37
6,abft.inject,34,800,10000,100000,0.879713,235,54829,16,0,0.0001000000,0.939646,6.81
7,abft.inject,34,800,10000,100000,0.886519,5200,63700,16,0,0.0001000000,0.939125,5.93
8,abft.inject,34,800,10000,100000,0.884719,5973,96133,16,0,0.0001000000,0.937110,5.92
9,abft.inject,34,800,10000,100000,0.880047,4409,14655,16,0,0.0001000000,0.937861,6.57
10,abft.inject,34,800,10000,100000,0.881504,7895,53569,16,0,0.0001000000,0.938175,6.43
11,abft.inject,34,800,10000,100000,0.880156,861,22719,16,0,0.0001000000,0.938226,6.60
12,abft.inject,34,800,10000,100000,0.881036,4431,94835,16,0,0.0001000000,0.937994,6.46
13,abft.inject,34,800,10000,100000,0.880666,4679,61224,16,0,0.0001000000,0.938565,6.57
14,abft.inject,34,800,10000,100000,0.882089,5851,42597,16,0,0.0001000000,0.937881,6.32
15,abft.inject,34,800,10000,100000,0.880615,5680,76189,16,0,0.0001000000,0.938905,6.62
16,abft.inject,34,800,10000,100000,0.885753,5145,667,16,0,0.0001000000,0.937024,5.79
17,abft.inject,34,800,10000,100000,0.882394,3005,10671,16,0,0.0001000000,0.938138,6.32
18,abft.inject,34,800,10000,100000,0.879411,1335,3755,16,0,0.0001000000,0.937207,6.57
19,abft.inject,34,800,10000,100000,0.879853,5188,24819,16,0,0.0001000000,0.938519,6.67
20,abft.inject,34,800,10000,100000,0.880177,4827,28055,16,0,0.0001000000,0.939805,6.77
21,abft.inject,34,800,10000,100000,0.880332,4294,95562,16,0,0.0001000000,0.937424,6.49
22,abft.inject,34,800,10000,100000,0.884510,58,89970,16,0,0.0001000000,0.937397,5.98
23,abft.inject,34,800,10000,100000,0.881354,7652,48804,16,0,0.0001000000,0.939342,6.58
24,abft.inject,34,800,10000,100000,0.879640,3029,78399,16,0,0.0001000000,0.937808,6.61
25,abft.inject,34,800,10000,100000,0.883659,7564,14257,16,0,0.0001000000,0.939270,6.29
26,abft.inject,34,800,10000,100000,0.885460,4762,40104,16,0,0.0001000000,0.937790,5.91
27,abft.inject,34,800,10000,100000,0.882134,2987,47311,16,0,0.0001000000,0.937720,6.30
28,abft.inject,34,800,10000,100000,0.881530,434,84781,16,0,0.0001000000,0.937861,6.39
29,abft.inject,34,800,10000,100000,0.879658,4523,49358,16,0,0.0001000000,0.941473,7.03
30,abft.inject,34,800,10000,100000,0.879432,2307,38235,16,0,0.0001000000,0.938924,6.76
31,abft.inject,34,800,10000,100000,0.879301,782,91636,16,0,0.0001000000,0.937295,6.60
32,abft.inject,34,800,10000,100000,0.891771,9695,43270,16,0,0.0001000000,0.938934,5.29
33,abft.inject,34,800,10000,100000,0.881053,4674,11510,16,0,0.0001000000,0.936951,6.34
34,abft.inject,34,800,10000,100000,0.879600,1105,32230,16,0,0.0001000000,0.936827,6.51
35,abft.inject,34,800,10000,100000,0.894677,9791,20259,16,0,0.0001000000,0.937684,4.81
36,abft.inject,34,800,10000,100000,0.880684,8455,24834,16,0,0.0001000000,0.938429,6.56
37,abft.inject,34,800,10000,100000,0.880046,5806,47500,16,0,0.0001000000,0.938423,6.63
38,abft.inject,34,800,10000,100000,0.879585,5499,9718,16,0,0.0001000000,0.942146,7.11
39,abft.inject,34,800,10000,100000,0.881686,821,13738,16,0,0.0001000000,0.938415,6.43
40,abft.inject,34,800,10000,100000,0.884883,1469,32139,16,0,0.0001000000,0.937281,5.92
41,abft.inject,34,800,10000,100000,0.882811,3598,46119,16,0,0.0001000000,0.935896,6.01
42,abft.inject,34,800,10000,100000,0.880018,7669,86919,16,0,0.0001000000,0.940095,6.83
43,abft.inject,34,800,10000,100000,0.879190,7864,57799,16,0,0.0001000000,0.939046,6.81
44,abft.inject,34,800,10000,100000,0.879745,4891,94773,16,0,0.0001000000,0.937767,6.60
45,abft.inject,34,800,10000,100000,0.879148,1944,19933,16,0,0.0001000000,0.937538,6.64
46,abft.inject,34,800,10000,100000,0.894102,2251,5342,16,0,0.0001000000,0.938125,4.92
47,abft.inject,34,800,10000,100000,0.879403,3998,30894,16,0,0.0001000000,0.938609,6.73
48,abft.inject,34,800,10000,100000,0.879785,1077,63704,16,0,0.0001000000,0.939839,6.83
49,abft.inject,34,800,10000,100000,0.898960,1712,46871,16,0,0.0001000000,0.983064,9.36
50,abft.inject,34,800,10000,100000,0.888967,8510,1860,16,0,0.0001000000,0.937972,5.51
0,abft.inject,36,800,10000,100000,0.885709,8269,89587,16,0,0.0001000000,0.936189,5.70
1,abft.inject,36,800,10000,100000,0.891355,4663,11086,16,0,0.0001000000,0.961070,7.82
2,abft.inject,36,800,10000,100000,0.881613,4157,35430,16,0,0.0001000000,0.937031,6.29
3,abft.inject,36,800,10000,100000,0.889491,7665,9586,16,0,0.0001000000,0.936140,5.24
4,abft.inject,36,800,10000,100000,0.879445,2176,38398,16,0,0.0001000000,0.935454,6.37
5,abft.inject,36,800,10000,100000,0.883404,7239,55026,16,0,0.0001000000,0.936009,5.95
6,abft.inject,36,800,10000,100000,0.883587,7632,90452,16,0,0.0001000000,0.934395,5.75
7,abft.inject,36,800,10000,100000,0.898993,306,36532,16,0,0.0001000000,0.935881,4.10
8,abft.inject,36,800,10000,100000,0.898766,5656,54855,16,0,0.0001000000,0.981175,9.17
9,abft.inject,36,800,10000,100000,0.879187,7177,19824,16,0,0.0001000000,0.936136,6.48
10,abft.inject,36,800,10000,100000,0.879254,5751,14002,16,0,0.0001000000,0.936613,6.52
11,abft.inject,36,800,10000,100000,0.879088,6815,99822,16,0,0.0001000000,0.935967,6.47
12,abft.inject,36,800,10000,100000,0.882397,2659,34474,16,0,0.0001000000,0.935706,6.04
13,abft.inject,36,800,10000,100000,0.882560,5871,79708,16,0,0.0001000000,0.935776,6.03
14,abft.inject,36,800,10000,100000,0.881616,6862,35170,16,0,0.0001000000,0.935720,6.14
15,abft.inject,36,800,10000,100000,0.879302,377,58337,16,0,0.0001000000,0.936289,6.48
16,abft.inject,36,800,10000,100000,0.879367,102,51017,16,0,0.0001000000,0.935286,6.36
17,abft.inject,36,800,10000,100000,0.901436,3986,60435,16,0,0.0001000000,0.966518,7.22
18,abft.inject,36,800,10000,100000,0.886733,59,46864,16,0,0.0001000000,0.936346,5.60
19,abft.inject,36,800,10000,100000,0.881254,2984,69612,16,0,0.0001000000,0.935762,6.19
20,abft.inject,36,800,10000,100000,0.898541,9901,86607,16,0,0.0001000000,0.982486,9.34
21,abft.inject,36,800,10000,100000,0.887514,74,77246,16,0,0.0001000000,0.935892,5.45
22,abft.inject,36,800,10000,100000,0.889676,2760,5983,16,0,0.0001000000,0.935970,5.20
23,abft.inject,36,800,10000,100000,0.890580,324,75373,16,0,0.0001000000,0.935916,5.09
24,abft.inject,36,800,10000,100000,0.891561,4386,8709,16,0,0.0001000000,0.935802,4.96
25,abft.inject,36,800,10000,100000,0.886296,3265,49854,16,0,0.0001000000,0.936255,5.64
26,abft.inject,36,800,10000,100000,0.891994,1055,28169,16,0,0.0001000000,0.935373,4.86
27,abft.inject,36,800,10000,100000,0.898331,3788,64181,16,0,0.0001000000,0.983007,9.43
28,abft.inject,36,800,10000,100000,0.880677,1233,39441,16,0,0.0001000000,0.936250,6.31
29,abft.inject,36,800,10000,100000,0.883890,8797,44539,16,0,0.0001000000,0.935557,5.85
30,abft.inject,36,800,10000,100000,0.880006,8757,80121,16,0,0.0001000000,0.936105,6.37
31,abft.inject,36,800,10000,100000,0.880538,6240,37930,16,0,0.0001000000,0.935776,6.27
32,abft.inject,36,800,10000,100000,0.882456,7315,97111,16,0,0.0001000000,0.937105,6.19
33,abft.inject,36,800,10000,100000,0.898307,5196,41787,16,0,0.0001000000,0.982453,9.37
34,abft.inject,36,800,10000,100000,0.880068,935,45658,16,0,0.0001000000,0.935744,6.33
35,abft.inject,36,800,10000,100000,0.879290,769,16573,16,0,0.0001000000,0.935517,6.39
36,abft.inject,36,800,10000,100000,0.882210,5122,36106,16,0,0.0001000000,0.935544,6.05
37,abft.inject,36,800,10000,100000,0.879339,5695,23704,16,0,0.0001000000,0.938264,6.70
38,abft.inject,36,800,10000,100000,0.882642,8978,73045,16,0,0.0001000000,0.937037,6.16
39,abft.inject,36,800,10000,100000,0.880532,7567,96959,16,0,0.0001000000,0.935769,6.27
40,abft.inject,36,800,10000,100000,0.890636,2581,90455,16,0,0.0001000000,0.935412,5.03
41,abft.inject,36,800,10000,100000,0.883628,9188,17242,16,0,0.0001000000,0.936055,5.93
42,abft.inject,36,800,10000,100000,0.881021,2230,12535,16,0,0.0001000000,0.937445,6.40
43,abft.inject,36,800,10000,100000,0.898520,3012,29785,16,0,0.0001000000,0.947035,5.40
44,abft.inject,36,800,10000,100000,0.894659,8364,53130,16,0,0.0001000000,0.935866,4.61
45,abft.inject,36,800,10000,100000,0.888756,5876,51769,16,0,0.0001000000,0.935853,5.30
46,abft.inject,36,800,10000,100000,0.897146,5853,30911,16,0,0.0001000000,0.936131,4.35
47,abft.inject,36,800,10000,100000,0.898773,676,45030,16,0,0.0001000000,0.981222,9.17
48,abft.inject,36,800,10000,100000,0.896341,5843,22481,16,0,0.0001000000,0.937675,4.61
49,abft.inject,36,800,10000,100000,0.898304,6712,29355,16,0,0.0001000000,0.935258,4.11
50,abft.inject,36,800,10000,100000,0.880119,1295,38696,16,0,0.0001000000,0.936000,6.35
0,abft.inject,38,800,10000,100000,0.883078,3290,48651,16,0,0.0001000000,0.934524,5.83
1,abft.inject,38,800,10000,100000,0.883818,2382,48638,16,0,0.0001000000,0.933922,5.67
2,abft.inject,38,800,10000,100000,0.881390,7660,32454,16,0,0.0001000000,0.934382,6.01
3,abft.inject,38,800,10000,100000,0.879515,834,11750,16,0,0.0001000000,0.934397,6.24
4,abft.inject,38,800,10000,100000,0.879416,4163,5474,16,0,0.0001000000,0.934169,6.23
5,abft.inject,38,800,10000,100000,0.879300,6058,86327,16,0,0.0001000000,0.935251,6.36
6,abft.inject,38,800,10000,100000,0.879614,5939,12143,16,0,0.0001000000,0.933596,6.14
7,abft.inject,38,800,10000,100000,0.881802,4008,34862,16,0,0.0001000000,0.933761,5.89
8,abft.inject,38,800,10000,100000,0.880714,1697,49007,16,0,0.0001000000,0.933563,6.00
9,abft.inject,38,800,10000,100000,0.879525,4828,55292,16,0,0.0001000000,0.933485,6.14
10,abft.inject,38,800,10000,100000,0.882323,9899,60438,16,0,0.0001000000,0.936146,6.10
11,abft.inject,38,800,10000,100000,0.880376,8727,89188,16,0,0.0001000000,0.933953,6.09
12,abft.inject,38,800,10000,100000,0.900303,3957,12492,16,0,0.0001000000,0.979113,8.75
13,abft.inject,38,800,10000,100000,0.902194,7843,3817,16,0,0.0001000000,0.946933,4.96
14,abft.inject,38,800,10000,100000,0.881405,4191,39843,16,0,0.0001000000,0.933903,5.96
15,abft.inject,38,800,10000,100000,0.898395,402,70512,16,0,0.0001000000,0.970168,7.99
16,abft.inject,38,800,10000,100000,0.895678,5988,15883,16,0,0.0001000000,0.933888,4.27
17,abft.inject,38,800,10000,100000,0.889208,1848,65871,16,0,0.0001000000,0.935471,5.20
18,abft.inject,38,800,10000,100000,0.899777,4682,67076,16,0,0.0001000000,0.979591,8.87
19,abft.inject,38,800,10000,100000,0.889455,176,80319,16,0,0.0001000000,0.933571,4.96
20,abft.inject,38,800,10000,100000,0.885450,2128,22181,16,0,0.0001000000,0.934111,5.50
21,abft.inject,38,800,10000,100000,0.899163,3886,3546,16,0,0.0001000000,0.977758,8.74
22,abft.inject,38,800,10000,100000,0.880811,4468,32024,16,0,0.0001000000,0.935831,6.25
23,abft.inject,38,800,10000,100000,0.888839,2919,91937,16,0,0.0001000000,0.933817,5.06
24,abft.inject,38,800,10000,100000,0.879482,9541,40431,16,0,0.0001000000,0.934234,6.23
25,abft.inject,38,800,10000,100000,0.879281,6044,63499,16,0,0.0001000000,0.934006,6.22
26,abft.inject,38,800,10000,100000,0.879649,6971,82530,16,0,0.0001000000,0.934542,6.24
27,abft.inject,38,800,10000,100000,0.898748,9027,89790,16,0,0.0001000000,0.981262,9.18
28,abft.inject,38,800,10000,100000,0.882225,9961,96108,16,0,0.0001000000,0.935501,6.04
29,abft.inject,38,800,10000,100000,0.882317,2646,50910,16,0,0.0001000000,0.933677,5.82
30,abft.inject,38,800,10000,100000,0.880426,3145,67840,16,0,0.0001000000,0.935813,6.29
31,abft.inject,38,800,10000,100000,0.880490,591,12547,16,0,0.0001000000,0.933430,6.01
32,abft.inject,38,800,10000,100000,0.879942,5321,13178,16,0,0.0001000000,0.935963,6.37
33,abft.inject,38,800,10000,100000,0.879918,4998,23075,16,0,0.0001000000,0.934291,6.18
34,abft.inject,38,800,10000,100000,0.885572,4042,91989,16,0,0.0001000000,0.932706,5.32
35,abft.inject,38,800,10000,100000,0.879155,1910,31515,16,0,0.0001000000,0.933480,6.18
36,abft.inject,38,800,10000,100000,0.888603,3052,85108,16,0,0.0001000000,0.934597,5.18
37,abft.inject,38,800,10000,100000,0.887992,4975,57312,16,0,0.0001000000,0.936261,5.44
38,abft.inject,38,800,10000,100000,0.889315,9159,58476,16,0,0.0001000000,0.934084,5.03
39,abft.inject,38,800,10000,100000,0.888685,8043,73689,16,0,0.0001000000,0.933889,5.09
40,abft.inject,38,800,10000,100000,0.891004,7121,31779,16,0,0.0001000000,0.933935,4.82
41,abft.inject,38,800,10000,100000,0.881152,3634,89454,16,0,0.0001000000,0.934392,6.04
42,abft.inject,38,800,10000,100000,0.879424,7252,1466,16,0,0.0001000000,0.934213,6.23
43,abft.inject,38,800,10000,100000,0.882024,4949,9394,16,0,0.0001000000,0.935579,6.07
44,abft.inject,38,800,10000,100000,0.881940,2263,21202,16,0,0.0001000000,0.933778,5.88
45,abft.inject,38,800,10000,100000,0.885007,6266,55341,16,0,0.0001000000,0.935373,5.69
46,abft.inject,38,800,10000,100000,0.888000,5923,12051,16,0,0.0001000000,0.934478,5.23
47,abft.inject,38,800,10000,100000,0.887507,7496,83603,16,0,0.0001000000,0.932404,5.06
48,abft.inject,38,800,10000,100000,0.881379,9907,25066,16,0,0.0001000000,0.933895,5.96
49,abft.inject,38,800,10000,100000,0.881121,3968,72268,16,0,0.0001000000,0.934395,6.05
50,abft.inject,38,800,10000,100000,0.880267,7138,434,16,0,0.0001000000,0.934166,6.12
0,abft.inject,40,800,10000,100000,0.879149,9292,52836,16,0,0.0001000000,0.929982,5.78
1,abft.inject,40,800,10000,100000,0.879724,5343,11715,16,0,0.0001000000,0.930888,5.82
2,abft.inject,40,800,10000,100000,0.883698,1894,26699,16,0,0.0001000000,0.928727,5.10
3,abft.inject,40,800,10000,100000,0.881139,3688,67894,16,0,0.0001000000,0.929712,5.51
4,abft.inject,40,800,10000,100000,0.886731,4442,91622,16,0,0.0001000000,0.931439,5.04
5,abft.inject,40,800,10000,100000,0.889111,7979,63163,16,0,0.0001000000,0.930835,4.69
6,abft.inject,40,800,10000,100000,0.888453,7192,19879,16,0,0.0001000000,0.928895,4.55
7,abft.inject,40,800,10000,100000,0.879877,3696,12711,16,0,0.0001000000,0.931166,5.83
8,abft.inject,40,800,10000,100000,0.892407,4424,48315,16,0,0.0001000000,0.931636,4.40
9,abft.inject,40,800,10000,100000,0.891477,1939,10416,16,0,0.0001000000,0.928770,4.18
10,abft.inject,40,800,10000,100000,0.879284,2819,37397,16,0,0.0001000000,0.931073,5.89
11,abft.inject,40,800,10000,100000,0.879757,5667,3877,16,0,0.0001000000,0.929146,5.61
12,abft.inject,40,800,10000,100000,0.879690,6768,12574,16,0,0.0001000000,0.932284,5.98
13,abft.inject,40,800,10000,100000,0.879121,9077,65931,16,0,0.0001000000,0.930051,5.79
14,abft.inject,40,800,10000,100000,0.880307,1772,34008,16,0,0.0001000000,0.929777,5.62
15,abft.inject,40,800,10000,100000,0.879150,4189,481,16,0,0.0001000000,0.929115,5.68
16,abft.inject,40,800,10000,100000,0.882098,8907,42297,16,0,0.0001000000,0.929615,5.39
17,abft.inject,40,800,10000,100000,0.881679,4823,26412,16,0,0.0001000000,0.931326,5.63
18,abft.inject,40,800,10000,100000,0.882507,1988,66472,16,0,0.0001000000,0.929778,5.36
19,abft.inject,40,800,10000,100000,0.879113,625,44711,16,0,0.0001000000,0.929272,5.71
20,abft.inject,40,800,10000,100000,0.879273,3253,39804,16,0,0.0001000000,0.928812,5.63
21,abft.inject,40,800,10000,100000,0.883260,7142,42394,16,0,0.0001000000,0.929428,5.23
22,abft.inject,40,800,10000,100000,0.883202,6037,11775,16,0,0.0001000000,0.929349,5.22
23,abft.inject,40,800,10000,100000,0.879238,3894,36707,16,0,0.0001000000,0.930296,5.81
24,abft.inject,40,800,10000,100000,0.890172,2630,66262,16,0,0.0001000000,0.929355,4.40
25,abft.inject,40,800,10000,100000,0.888795,401,28824,16,0,0.0001000000,0.928885,4.51
26,abft.inject,40,800,10000,100000,0.892191,9958,54086,16,0,0.0001000000,0.930198,4.26
27,abft.inject,40,800,10000,100000,0.886883,5761,26606,16,0,0.0001000000,0.930020,4.86
28,abft.inject,40,800,10000,100000,0.883818,9373,77991,16,0,0.0001000000,0.930378,5.27
29,abft.inject,40,800,10000,100000,0.894935,4807,62624,16,0,0.0001000000,0.929760,3.89
30,abft.inject,40,800,10000,100000,0.879919,7467,71380,16,0,0.0001000000,0.928617,5.53
31,abft.inject,40,800,10000,100000,0.879952,1304,74601,16,0,0.0001000000,0.931072,5.81
32,abft.inject,40,800,10000,100000,0.879575,2268,10443,16,0,0.0001000000,0.929049,5.62
33,abft.inject,40,800,10000,100000,0.882398,7765,11803,16,0,0.0001000000,0.928403,5.21
34,abft.inject,40,800,10000,100000,0.882393,3985,61879,16,0,0.0001000000,0.929639,5.35
35,abft.inject,40,800,10000,100000,0.882429,2377,14567,16,0,0.0001000000,0.930073,5.40
36,abft.inject,40,800,10000,100000,0.883378,6139,11060,16,0,0.0001000000,0.930375,5.32
37,abft.inject,40,800,10000,100000,0.879674,4096,9620,16,0,0.0001000000,0.930044,5.73
38,abft.inject,40,800,10000,100000,0.889354,2655,69505,16,0,0.0001000000,0.929170,4.48
39,abft.inject,40,800,10000,100000,0.880412,1124,73787,16,0,0.0001000000,0.931880,5.85
40,abft.inject,40,800,10000,100000,0.879341,2413,97714,16,0,0.0001000000,0.929614,5.72
41,abft.inject,40,800,10000,100000,0.879930,7992,12262,16,0,0.0001000000,0.930505,5.75
42,abft.inject,40,800,10000,100000,0.879346,5751,57110,16,0,0.0001000000,0.929043,5.65
43,abft.inject,40,800,10000,100000,0.891559,5314,29094,16,0,0.0001000000,0.931039,4.43
44,abft.inject,40,800,10000,100000,0.894846,1087,74949,16,0,0.0001000000,0.930467,3.98
45,abft.inject,40,800,10000,100000,0.879610,6607,68297,16,0,0.0001000000,0.928863,5.60
46,abft.inject,40,800,10000,100000,0.879783,327,91328,16,0,0.0001000000,0.929509,5.65
47,abft.inject,40,800,10000,100000,0.879489,6238,30800,16,0,0.0001000000,0.928917,5.62
48,abft.inject,40,800,10000,100000,0.879205,7575,43606,16,0,0.0001000000,0.930468,5.83
49,abft.inject,40,800,10000,100000,0.879280,9504,60943,16,0,0.0001000000,0.931478,5.94
50,abft.inject,40,800,10000,100000,0.880343,6726,20373,16,0,0.0001000000,0.929315,5.56
