L,S,W,|,31,30,29,28,27,26,25,24,23,22,21,20,19,18,17,16,15,14,13,12,11,10
-,-,-,-,-,-,-,-,-,-,-,-,-,-,-,-,-,-,-,-,-,-,-,-,-,-
-1,4,800,|,72.54,64.70,72.54,78.43,74.50,78.43,82.35,76.47,78.43,80.39,80.39,92.15,0,0,0,0,0,0,0,0,0,0
-1,6,800,|,82.35,90.19,78.43,82.35,80.39,88.23,78.43,78.43,80.39,86.27,74.50,70.58,0,0,0,0,0,0,0,0,0,0
-1,8,800,|,94.11,88.23,88.23,90.19,82.35,96.07,82.35,88.23,86.27,92.15,84.31,82.35,0,0,0,0,0,0,0,0,0,0
-1,10,800,|,98.03,78.43,88.23,84.31,88.23,92.15,94.11,86.27,76.47,88.23,86.27,90.19,0,0,0,0,0,0,0,0,0,0
-1,12,800,|,82.35,86.27,94.11,94.11,88.23,92.15,88.23,92.15,88.23,92.15,82.35,84.31,0,0,0,0,0,0,0,0,0,0
-1,14,800,|,84.31,96.07,90.19,88.23,90.19,88.23,96.07,90.19,88.23,82.35,90.19,86.27,0,0,0,0,0,0,0,0,0,0
-1,16,800,|,96.07,96.07,94.11,92.15,98.03,88.23,96.07,94.11,88.23,92.15,88.23,94.11,0,0,0,0,0,0,0,0,0,0
-1,18,800,|,94.11,92.15,96.07,94.11,92.15,94.11,88.23,94.11,96.07,92.15,90.19,96.07,7.84,3.92,7.84,0,9.80,1.96,1.96,3.92,15.68,9.80
-1,20,800,|,90.19,90.19,96.07,90.19,90.19,88.23,96.07,92.15,90.19,88.23,96.07,96.07,0,0,0,0,0,0,0,0,0,0
-1,22,800,|,90.19,98.03,88.23,96.07,96.07,84.31,92.15,86.27,96.07,94.11,80.39,86.27,0,0,0,0,0,0,0,0,0,0
-1,24,800,|,96.07,96.07,96.07,88.23,98.03,94.11,96.07,94.11,94.11,92.15,92.15,96.07,0,0,0,0,0,0,0,0,0,0
-1,26,800,|,92.15,98.03,94.11,88.23,94.11,94.11,94.11,96.07,90.19,94.11,98.03,92.15,0,0,0,0,0,0,0,0,0,0
-1,28,800,|,92.15,94.11,92.15,96.07,96.07,98.03,96.07,98.03,92.15,90.19,98.03,88.23,0,0,0,0,0,0,0,0,0,0
-1,30,800,|,94.11,94.11,98.03,90.19,98.03,84.31,96.07,94.11,94.11,92.15,96.07,100.00,0,0,0,0,0,0,0,0,0,0
-1,32,800,|,96.07,92.15,96.07,98.03,96.07,94.11,92.15,94.11,96.07,96.07,98.03,94.11,0,0,0,0,0,0,0,0,0,0
-1,34,800,|,100.00,96.07,96.07,98.03,96.07,92.15,92.15,94.11,94.11,98.03,94.11,90.19,0,0,0,0,0,0,0,0,0,0
-1,36,800,|,94.11,88.23,96.07,96.07,94.11,88.23,94.11,92.15,98.03,96.07,90.19,94.11,0,0,0,0,0,0,0,0,0,0
-1,38,800,|,98.03,90.19,96.07,92.15,94.11,94.11,96.07,92.15,94.11,96.07,94.11,98.03,0,0,0,0,0,0,0,0,0,0
-1,40,800,|,94.11,96.07,98.03,96.07,94.11,94.11,92.15,98.03,98.03,92.15,96.07,90.19,0,0,0,0,0,0,0,0,0,0
